graph G {
1;
2;
3;
4;
5;
6;
7;
8;
9;
10;
5--7  [label="[7,16]", low=7, up=16];
1--2  [label="[9,18]", low=9, up=18];
8--3  [label="[4,11]", low=4, up=11];
2--5  [label="[4,12]", low=4, up=12];
6--4  [label="[10,19]", low=10, up=19];
2--6  [label="[2,9]", low=2, up=9];
2--7  [label="[9,17]", low=9, up=17];
10--8  [label="[8,17]", low=8, up=17];
6--10  [label="[1,9]", low=1, up=9];
6--7  [label="[9,18]", low=9, up=18];
9--5  [label="[2,10]", low=2, up=10];
1--3  [label="[1,8]", low=1, up=8];
10--5  [label="[1,9]", low=1, up=9];
2--9  [label="[8,15]", low=8, up=15];
9--3  [label="[9,16]", low=9, up=16];
7--10  [label="[2,9]", low=2, up=9];
9--4  [label="[5,13]", low=5, up=13];
5--1  [label="[2,11]", low=2, up=11];
8--6  [label="[1,8]", low=1, up=8];
7--3  [label="[6,15]", low=6, up=15];
4--8  [label="[10,18]", low=10, up=18];
1--10  [label="[7,14]", low=7, up=14];
2--10  [label="[5,14]", low=5, up=14];
6--1  [label="[7,16]", low=7, up=16];
4--3  [label="[8,15]", low=8, up=15];
}
