graph G {
1;
2;
3;
4;
5;
6;
7;
8;
9;
10;
8--1  [label="[8,10]", low=8, up=10];
7--8  [label="[2,5]", low=2, up=5];
10--9  [label="[6,9]", low=6, up=9];
2--9  [label="[5,7]", low=5, up=7];
9--1  [label="[2,5]", low=2, up=5];
4--10  [label="[3,6]", low=3, up=6];
2--5  [label="[10,12]", low=10, up=12];
3--5  [label="[7,10]", low=7, up=10];
7--9  [label="[5,8]", low=5, up=8];
1--10  [label="[9,11]", low=9, up=11];
10--8  [label="[9,12]", low=9, up=12];
6--2  [label="[3,5]", low=3, up=5];
8--3  [label="[5,8]", low=5, up=8];
5--1  [label="[7,10]", low=7, up=10];
7--4  [label="[3,6]", low=3, up=6];
6--5  [label="[5,8]", low=5, up=8];
8--5  [label="[8,10]", low=8, up=10];
2--3  [label="[5,8]", low=5, up=8];
7--3  [label="[2,5]", low=2, up=5];
6--7  [label="[5,7]", low=5, up=7];
4--5  [label="[1,4]", low=1, up=4];
3--1  [label="[7,10]", low=7, up=10];
3--4  [label="[2,5]", low=2, up=5];
2--4  [label="[6,9]", low=6, up=9];
1--4  [label="[5,7]", low=5, up=7];
7--5  [label="[6,8]", low=6, up=8];
6--9  [label="[3,6]", low=3, up=6];
6--8  [label="[6,9]", low=6, up=9];
2--1  [label="[3,6]", low=3, up=6];
4--9  [label="[3,5]", low=3, up=5];
10--7  [label="[2,5]", low=2, up=5];
3--6  [label="[6,9]", low=6, up=9];
1--7  [label="[4,6]", low=4, up=6];
2--10  [label="[1,4]", low=1, up=4];
5--9  [label="[9,11]", low=9, up=11];
}
