graph G {
1;
2;
3;
4;
5;
6;
7;
8;
9;
10;
11;
12;
9--4  [label="[5,9]", low=5, up=9];
1--7  [label="[8,10]", low=8, up=10];
5--12  [label="[5,10]", low=5, up=10];
8--7  [label="[8,17]", low=8, up=17];
4--12  [label="[1,8]", low=1, up=8];
12--7  [label="[9,10]", low=9, up=10];
2--10  [label="[3,13]", low=3, up=13];
5--7  [label="[7,14]", low=7, up=14];
8--10  [label="[6,11]", low=6, up=11];
6--11  [label="[4,14]", low=4, up=14];
3--2  [label="[5,14]", low=5, up=14];
3--8  [label="[5,12]", low=5, up=12];
5--8  [label="[6,10]", low=6, up=10];
1--2  [label="[7,9]", low=7, up=9];
4--3  [label="[2,5]", low=2, up=5];
6--9  [label="[9,16]", low=9, up=16];
1--6  [label="[2,9]", low=2, up=9];
10--5  [label="[3,8]", low=3, up=8];
}
