graph G {
1;
2;
3;
4;
5;
6;
7;
8;
9;
10;
11;
12;
12--2  [label="[6,11]", low=6, up=11];
5--10  [label="[8,9]", low=8, up=9];
9--5  [label="[4,10]", low=4, up=10];
3--8  [label="[1,3]", low=1, up=3];
5--3  [label="[9,13]", low=9, up=13];
10--4  [label="[2,11]", low=2, up=11];
3--12  [label="[9,15]", low=9, up=15];
6--2  [label="[8,15]", low=8, up=15];
11--7  [label="[9,12]", low=9, up=12];
4--9  [label="[5,12]", low=5, up=12];
2--1  [label="[7,9]", low=7, up=9];
11--1  [label="[2,11]", low=2, up=11];
8--9  [label="[8,10]", low=8, up=10];
11--12  [label="[4,10]", low=4, up=10];
4--8  [label="[5,12]", low=5, up=12];
6--5  [label="[8,18]", low=8, up=18];
11--9  [label="[7,11]", low=7, up=11];
9--2  [label="[9,11]", low=9, up=11];
}
