graph G {
1;
2;
3;
4;
5;
6;
7;
8;
9;
10;
11;
12;
3--1  [label="[1,4]", low=1, up=4];
1--8  [label="[2,7]", low=2, up=7];
6--3  [label="[2,5]", low=2, up=5];
9--12  [label="[5,7]", low=5, up=7];
6--2  [label="[7,8]", low=7, up=8];
1--11  [label="[3,7]", low=3, up=7];
6--10  [label="[9,15]", low=9, up=15];
12--2  [label="[2,9]", low=2, up=9];
11--9  [label="[5,15]", low=5, up=15];
9--2  [label="[8,12]", low=8, up=12];
7--11  [label="[6,13]", low=6, up=13];
10--11  [label="[7,10]", low=7, up=10];
8--2  [label="[3,7]", low=3, up=7];
9--8  [label="[2,7]", low=2, up=7];
9--1  [label="[9,12]", low=9, up=12];
12--4  [label="[4,9]", low=4, up=9];
10--2  [label="[10,16]", low=10, up=16];
1--10  [label="[5,15]", low=5, up=15];
12--10  [label="[10,16]", low=10, up=16];
5--3  [label="[4,14]", low=4, up=14];
4--3  [label="[9,13]", low=9, up=13];
2--11  [label="[6,9]", low=6, up=9];
10--8  [label="[9,15]", low=9, up=15];
6--1  [label="[6,13]", low=6, up=13];
1--5  [label="[8,14]", low=8, up=14];
8--11  [label="[4,8]", low=4, up=8];
6--9  [label="[10,13]", low=10, up=13];
1--7  [label="[7,12]", low=7, up=12];
7--12  [label="[6,10]", low=6, up=10];
6--12  [label="[10,17]", low=10, up=17];
9--5  [label="[9,15]", low=9, up=15];
6--4  [label="[1,11]", low=1, up=11];
1--4  [label="[8,18]", low=8, up=18];
6--7  [label="[6,15]", low=6, up=15];
9--3  [label="[7,12]", low=7, up=12];
12--1  [label="[10,14]", low=10, up=14];
4--10  [label="[5,10]", low=5, up=10];
5--12  [label="[9,16]", low=9, up=16];
7--5  [label="[10,18]", low=10, up=18];
5--10  [label="[5,11]", low=5, up=11];
3--12  [label="[8,17]", low=8, up=17];
6--5  [label="[8,16]", low=8, up=16];
}
