graph G {
1;
2;
3;
4;
5;
6;
7;
8;
9;
10;
11;
12;
9--4  [label="[5,14]", low=5, up=14];
1--7  [label="[8,16]", low=8, up=16];
5--12  [label="[8,18]", low=8, up=18];
8--7  [label="[5,14]", low=5, up=14];
4--12  [label="[3,13]", low=3, up=13];
12--7  [label="[7,16]", low=7, up=16];
2--10  [label="[6,9]", low=6, up=9];
5--7  [label="[6,10]", low=6, up=10];
8--10  [label="[4,9]", low=4, up=9];
6--11  [label="[10,16]", low=10, up=16];
3--2  [label="[7,15]", low=7, up=15];
3--8  [label="[1,3]", low=1, up=3];
5--8  [label="[9,11]", low=9, up=11];
1--2  [label="[6,15]", low=6, up=15];
4--3  [label="[3,11]", low=3, up=11];
6--9  [label="[8,9]", low=8, up=9];
1--6  [label="[7,9]", low=7, up=9];
10--5  [label="[8,12]", low=8, up=12];
9--1  [label="[10,14]", low=10, up=14];
9--3  [label="[2,3]", low=2, up=3];
8--9  [label="[10,17]", low=10, up=17];
5--4  [label="[3,13]", low=3, up=13];
11--8  [label="[3,10]", low=3, up=10];
11--5  [label="[9,10]", low=9, up=10];
1--11  [label="[6,15]", low=6, up=15];
9--11  [label="[10,13]", low=10, up=13];
10--1  [label="[3,12]", low=3, up=12];
12--6  [label="[1,7]", low=1, up=7];
11--3  [label="[7,17]", low=7, up=17];
2--12  [label="[8,14]", low=8, up=14];
9--2  [label="[10,13]", low=10, up=13];
11--12  [label="[7,17]", low=7, up=17];
6--5  [label="[10,13]", low=10, up=13];
11--2  [label="[1,2]", low=1, up=2];
10--9  [label="[7,17]", low=7, up=17];
9--7  [label="[4,12]", low=4, up=12];
1--4  [label="[3,11]", low=3, up=11];
4--6  [label="[5,9]", low=5, up=9];
1--3  [label="[8,10]", low=8, up=10];
8--6  [label="[4,9]", low=4, up=9];
3--10  [label="[4,7]", low=4, up=7];
7--3  [label="[1,10]", low=1, up=10];
}
