<?xml version="1.0" encoding="UTF-8" standalone="no"?>
<!DOCTYPE svg PUBLIC "-//W3C//DTD SVG 1.1//EN"
 "http://www.w3.org/Graphics/SVG/1.1/DTD/svg11.dtd">
<!-- Generated by graphviz version 2.43.0 (0)
 -->
<!-- Title: G Pages: 1 -->
<svg width="631pt" height="827pt"
 viewBox="0.00 0.00 631.00 827.00" xmlns="http://www.w3.org/2000/svg" xmlns:xlink="http://www.w3.org/1999/xlink">
<g id="graph0" class="graph" transform="scale(1 1) rotate(0) translate(4 823)">
<title>G</title>
<polygon fill="white" stroke="transparent" points="-4,4 -4,-823 627,-823 627,4 -4,4"/>
<!-- 1 -->
<g id="node1" class="node">
<title>1</title>
<ellipse fill="none" stroke="black" cx="405" cy="-801" rx="27" ry="18"/>
<text text-anchor="middle" x="405" y="-797.3" font-family="Times,serif" font-size="14.00">1</text>
</g>
<!-- 2 -->
<g id="node2" class="node">
<title>2</title>
<ellipse fill="none" stroke="black" cx="104" cy="-714" rx="27" ry="18"/>
<text text-anchor="middle" x="104" y="-710.3" font-family="Times,serif" font-size="14.00">2</text>
</g>
<!-- 1&#45;&#45;2 -->
<g id="edge21" class="edge">
<title>1&#45;&#45;2</title>
<path fill="none" stroke="black" d="M377.87,-799.68C316.58,-798.46 169.67,-792.67 130,-765 118.92,-757.28 112.23,-743.35 108.42,-732.15"/>
<text text-anchor="middle" x="147" y="-753.8" font-family="Times,serif" font-size="14.00">[5,8]</text>
</g>
<!-- 5 -->
<g id="node5" class="node">
<title>5</title>
<ellipse fill="none" stroke="black" cx="402" cy="-366" rx="27" ry="18"/>
<text text-anchor="middle" x="402" y="-362.3" font-family="Times,serif" font-size="14.00">5</text>
</g>
<!-- 1&#45;&#45;5 -->
<g id="edge19" class="edge">
<title>1&#45;&#45;5</title>
<path fill="none" stroke="black" d="M412.62,-783.57C415.01,-777.8 417.43,-771.22 419,-765 445.64,-659.79 456.99,-629.62 443,-522 436.32,-470.66 417.71,-412.1 408.02,-383.91"/>
<text text-anchor="middle" x="474" y="-579.8" font-family="Times,serif" font-size="14.00">[10,13]</text>
</g>
<!-- 7 -->
<g id="node7" class="node">
<title>7</title>
<ellipse fill="none" stroke="black" cx="375" cy="-279" rx="27" ry="18"/>
<text text-anchor="middle" x="375" y="-275.3" font-family="Times,serif" font-size="14.00">7</text>
</g>
<!-- 1&#45;&#45;7 -->
<g id="edge16" class="edge">
<title>1&#45;&#45;7</title>
<path fill="none" stroke="black" d="M405,-782.74C405,-765.57 405,-738.46 405,-715 405,-715 405,-715 405,-582.5 405,-555.61 401.85,-548.7 405,-522 414.22,-443.83 449.54,-425.86 438,-348 435.75,-332.84 437.16,-327.29 428,-315 419.96,-304.22 407.54,-295.76 396.75,-289.87"/>
<text text-anchor="middle" x="422" y="-536.3" font-family="Times,serif" font-size="14.00">[1,4]</text>
</g>
<!-- 9 -->
<g id="node9" class="node">
<title>9</title>
<ellipse fill="none" stroke="black" cx="274" cy="-540" rx="27" ry="18"/>
<text text-anchor="middle" x="274" y="-536.3" font-family="Times,serif" font-size="14.00">9</text>
</g>
<!-- 1&#45;&#45;9 -->
<g id="edge24" class="edge">
<title>1&#45;&#45;9</title>
<path fill="none" stroke="black" d="M398.27,-783.23C377.98,-732.76 318.39,-585.15 312,-576 306.25,-567.77 298.25,-560.04 291.08,-553.95"/>
<text text-anchor="middle" x="372" y="-666.8" font-family="Times,serif" font-size="14.00">[1,3]</text>
</g>
<!-- 6 -->
<g id="node6" class="node">
<title>6</title>
<ellipse fill="none" stroke="black" cx="274" cy="-627" rx="27" ry="18"/>
<text text-anchor="middle" x="274" y="-623.3" font-family="Times,serif" font-size="14.00">6</text>
</g>
<!-- 2&#45;&#45;6 -->
<g id="edge5" class="edge">
<title>2&#45;&#45;6</title>
<path fill="none" stroke="black" d="M125.19,-702.41C157.94,-686.03 220.49,-654.76 253.08,-638.46"/>
<text text-anchor="middle" x="221.5" y="-666.8" font-family="Times,serif" font-size="14.00">[8,10]</text>
</g>
<!-- 10 -->
<g id="node10" class="node">
<title>10</title>
<ellipse fill="none" stroke="black" cx="174" cy="-453" rx="27" ry="18"/>
<text text-anchor="middle" x="174" y="-449.3" font-family="Times,serif" font-size="14.00">10</text>
</g>
<!-- 2&#45;&#45;10 -->
<g id="edge8" class="edge">
<title>2&#45;&#45;10</title>
<path fill="none" stroke="black" d="M106.21,-695.93C109.79,-669.82 117.63,-618.51 129,-576 139.61,-536.35 145.49,-527.4 160,-489 162.27,-483 164.85,-476.47 167.18,-470.68"/>
<text text-anchor="middle" x="146" y="-579.8" font-family="Times,serif" font-size="14.00">[5,8]</text>
</g>
<!-- 3 -->
<g id="node3" class="node">
<title>3</title>
<ellipse fill="none" stroke="black" cx="288" cy="-192" rx="27" ry="18"/>
<text text-anchor="middle" x="288" y="-188.3" font-family="Times,serif" font-size="14.00">3</text>
</g>
<!-- 3&#45;&#45;1 -->
<g id="edge3" class="edge">
<title>3&#45;&#45;1</title>
<path fill="none" stroke="black" d="M314.04,-197.08C373.67,-207.15 515,-235.5 515,-278 515,-715 515,-715 515,-715 515,-757.96 461.82,-782.27 429.41,-793.1"/>
<text text-anchor="middle" x="532" y="-492.8" font-family="Times,serif" font-size="14.00">[4,6]</text>
</g>
<!-- 8 -->
<g id="node8" class="node">
<title>8</title>
<ellipse fill="none" stroke="black" cx="239" cy="-105" rx="27" ry="18"/>
<text text-anchor="middle" x="239" y="-101.3" font-family="Times,serif" font-size="14.00">8</text>
</g>
<!-- 3&#45;&#45;8 -->
<g id="edge14" class="edge">
<title>3&#45;&#45;8</title>
<path fill="none" stroke="black" d="M278.78,-175.01C270.08,-159.91 257.09,-137.38 248.34,-122.21"/>
<text text-anchor="middle" x="284" y="-144.8" font-family="Times,serif" font-size="14.00">[3,5]</text>
</g>
<!-- 4 -->
<g id="node4" class="node">
<title>4</title>
<ellipse fill="none" stroke="black" cx="124" cy="-18" rx="27" ry="18"/>
<text text-anchor="middle" x="124" y="-14.3" font-family="Times,serif" font-size="14.00">4</text>
</g>
<!-- 4&#45;&#45;2 -->
<g id="edge11" class="edge">
<title>4&#45;&#45;2</title>
<path fill="none" stroke="black" d="M98.61,-24.37C62.33,-33.7 0,-56.63 0,-104 0,-628 0,-628 0,-628 0,-669.16 49.44,-693.97 80.14,-705.41"/>
<text text-anchor="middle" x="17" y="-362.3" font-family="Times,serif" font-size="14.00">[3,6]</text>
</g>
<!-- 5&#45;&#45;4 -->
<g id="edge1" class="edge">
<title>5&#45;&#45;4</title>
<path fill="none" stroke="black" d="M422.1,-353.75C444.31,-339.65 477,-313.26 477,-280 477,-280 477,-280 477,-104 477,-37.02 233.77,-22.67 151.11,-19.73"/>
<text text-anchor="middle" x="494" y="-188.3" font-family="Times,serif" font-size="14.00">[2,5]</text>
</g>
<!-- 5&#45;&#45;7 -->
<g id="edge23" class="edge">
<title>5&#45;&#45;7</title>
<path fill="none" stroke="black" d="M396.67,-348.21C391.93,-333.31 385.05,-311.65 380.32,-296.76"/>
<text text-anchor="middle" x="407" y="-318.8" font-family="Times,serif" font-size="14.00">[2,5]</text>
</g>
<!-- 6&#45;&#45;5 -->
<g id="edge18" class="edge">
<title>6&#45;&#45;5</title>
<path fill="none" stroke="black" d="M291.13,-613.08C298.31,-607 306.29,-599.27 312,-591 359.86,-521.68 388.05,-423.12 397.95,-383.98"/>
<text text-anchor="middle" x="380" y="-492.8" font-family="Times,serif" font-size="14.00">[4,6]</text>
</g>
<!-- 6&#45;&#45;9 -->
<g id="edge15" class="edge">
<title>6&#45;&#45;9</title>
<path fill="none" stroke="black" d="M274,-608.8C274,-594.05 274,-572.92 274,-558.18"/>
<text text-anchor="middle" x="291" y="-579.8" font-family="Times,serif" font-size="14.00">[3,6]</text>
</g>
<!-- 7&#45;&#45;3 -->
<g id="edge2" class="edge">
<title>7&#45;&#45;3</title>
<path fill="none" stroke="black" d="M360.24,-263.58C344.15,-247.86 318.55,-222.85 302.54,-207.21"/>
<text text-anchor="middle" x="353" y="-231.8" font-family="Times,serif" font-size="14.00">[5,7]</text>
</g>
<!-- 8&#45;&#45;1 -->
<g id="edge7" class="edge">
<title>8&#45;&#45;1</title>
<path fill="none" stroke="black" d="M265.69,-108.85C328.16,-116.09 481.15,-137.25 515,-174 625.9,-294.38 564,-375.32 564,-539 564,-715 564,-715 564,-715 564,-774.32 476.88,-792.39 431.61,-797.78"/>
<text text-anchor="middle" x="597" y="-449.3" font-family="Times,serif" font-size="14.00">[10,12]</text>
</g>
<!-- 8&#45;&#45;4 -->
<g id="edge13" class="edge">
<title>8&#45;&#45;4</title>
<path fill="none" stroke="black" d="M221.53,-91.09C199.92,-75.11 163.32,-48.06 141.63,-32.03"/>
<text text-anchor="middle" x="206" y="-57.8" font-family="Times,serif" font-size="14.00">[3,6]</text>
</g>
<!-- 9&#45;&#45;3 -->
<g id="edge20" class="edge">
<title>9&#45;&#45;3</title>
<path fill="none" stroke="black" d="M273.44,-521.63C272.7,-497.97 271.46,-454.29 271,-417 270.92,-410.33 270.73,-408.66 271,-402 273.9,-330.52 282.37,-245.64 286.14,-210.04"/>
<text text-anchor="middle" x="295.5" y="-362.3" font-family="Times,serif" font-size="14.00">[8,11]</text>
</g>
<!-- 9&#45;&#45;4 -->
<g id="edge10" class="edge">
<title>9&#45;&#45;4</title>
<path fill="none" stroke="black" d="M246.72,-539.97C189.46,-540.46 62,-532.71 62,-454 62,-454 62,-454 62,-104 62,-73.68 88.07,-46.94 106.4,-31.89"/>
<text text-anchor="middle" x="79" y="-275.3" font-family="Times,serif" font-size="14.00">[1,4]</text>
</g>
<!-- 9&#45;&#45;7 -->
<g id="edge4" class="edge">
<title>9&#45;&#45;7</title>
<path fill="none" stroke="black" d="M281.17,-522.52C291.27,-499.17 310.11,-455.05 325,-417 341.79,-374.09 359.98,-322.95 369.09,-296.97"/>
<text text-anchor="middle" x="351.5" y="-405.8" font-family="Times,serif" font-size="14.00">[9,12]</text>
</g>
<!-- 9&#45;&#45;10 -->
<g id="edge17" class="edge">
<title>9&#45;&#45;10</title>
<path fill="none" stroke="black" d="M251.21,-530.22C237.64,-524.24 220.65,-515.34 208,-504 197.37,-494.47 188.44,-480.96 182.4,-470.38"/>
<text text-anchor="middle" x="234" y="-492.8" font-family="Times,serif" font-size="14.00">[10,12]</text>
</g>
<!-- 10&#45;&#45;1 -->
<g id="edge12" class="edge">
<title>10&#45;&#45;1</title>
<path fill="none" stroke="black" d="M172.65,-471.23C170.7,-506.51 170.47,-588.4 204,-645 247.69,-718.74 341.02,-769.9 383.34,-790.23"/>
<text text-anchor="middle" x="221" y="-623.3" font-family="Times,serif" font-size="14.00">[6,8]</text>
</g>
<!-- 10&#45;&#45;3 -->
<g id="edge9" class="edge">
<title>10&#45;&#45;3</title>
<path fill="none" stroke="black" d="M180.62,-435.45C191.02,-409.6 211.96,-358.13 231,-315 247.8,-276.93 268.8,-232.82 280.03,-209.47"/>
<text text-anchor="middle" x="252.5" y="-318.8" font-family="Times,serif" font-size="14.00">[8,10]</text>
</g>
<!-- 10&#45;&#45;4 -->
<g id="edge25" class="edge">
<title>10&#45;&#45;4</title>
<path fill="none" stroke="black" d="M159.27,-437.84C144.52,-422.07 124,-395.08 124,-367 124,-367 124,-367 124,-104 124,-80.54 124,-53.43 124,-36.26"/>
<text text-anchor="middle" x="141" y="-231.8" font-family="Times,serif" font-size="14.00">[4,7]</text>
</g>
<!-- 10&#45;&#45;5 -->
<g id="edge22" class="edge">
<title>10&#45;&#45;5</title>
<path fill="none" stroke="black" d="M195.74,-441.95C219.03,-431.36 257.23,-414.5 291,-402 320.37,-391.12 354.87,-380.59 377.52,-373.97"/>
<text text-anchor="middle" x="308" y="-405.8" font-family="Times,serif" font-size="14.00">[4,7]</text>
</g>
<!-- 10&#45;&#45;8 -->
<g id="edge6" class="edge">
<title>10&#45;&#45;8</title>
<path fill="none" stroke="black" d="M173.26,-434.93C172.16,-401.29 171.41,-324.18 184,-261 194.43,-208.63 218.97,-150.07 231.44,-122.3"/>
<text text-anchor="middle" x="210" y="-275.3" font-family="Times,serif" font-size="14.00">[10,13]</text>
</g>
</g>
</svg>
