<?xml version="1.0" encoding="UTF-8" standalone="no"?>
<!DOCTYPE svg PUBLIC "-//W3C//DTD SVG 1.1//EN"
 "http://www.w3.org/Graphics/SVG/1.1/DTD/svg11.dtd">
<!-- Generated by graphviz version 2.43.0 (0)
 -->
<!-- Title: G Pages: 1 -->
<svg width="736pt" height="566pt"
 viewBox="0.00 0.00 736.00 566.00" xmlns="http://www.w3.org/2000/svg" xmlns:xlink="http://www.w3.org/1999/xlink">
<g id="graph0" class="graph" transform="scale(1 1) rotate(0) translate(4 562)">
<title>G</title>
<polygon fill="white" stroke="transparent" points="-4,4 -4,-562 732,-562 732,4 -4,4"/>
<!-- 1 -->
<g id="node1" class="node">
<title>1</title>
<ellipse fill="none" stroke="black" cx="79" cy="-540" rx="27" ry="18"/>
<text text-anchor="middle" x="79" y="-536.3" font-family="Times,serif" font-size="14.00">1</text>
</g>
<!-- 2 -->
<g id="node2" class="node">
<title>2</title>
<ellipse fill="none" stroke="black" cx="436" cy="-453" rx="27" ry="18"/>
<text text-anchor="middle" x="436" y="-449.3" font-family="Times,serif" font-size="14.00">2</text>
</g>
<!-- 1&#45;&#45;2 -->
<g id="edge1" class="edge">
<title>1&#45;&#45;2</title>
<path fill="none" stroke="black" d="M104.1,-533.02C169.65,-517.42 345.41,-475.57 410.92,-459.97"/>
<text text-anchor="middle" x="295" y="-492.8" font-family="Times,serif" font-size="14.00">[4,7]</text>
</g>
<!-- 5 -->
<g id="node5" class="node">
<title>5</title>
<ellipse fill="none" stroke="black" cx="339" cy="-105" rx="27" ry="18"/>
<text text-anchor="middle" x="339" y="-101.3" font-family="Times,serif" font-size="14.00">5</text>
</g>
<!-- 1&#45;&#45;5 -->
<g id="edge3" class="edge">
<title>1&#45;&#45;5</title>
<path fill="none" stroke="black" d="M58.24,-528.26C34.84,-514.49 0,-488.25 0,-454 0,-454 0,-454 0,-191 0,-126.76 231.94,-110.64 312.12,-106.98"/>
<text text-anchor="middle" x="17" y="-318.8" font-family="Times,serif" font-size="14.00">[2,4]</text>
</g>
<!-- 8 -->
<g id="node8" class="node">
<title>8</title>
<ellipse fill="none" stroke="black" cx="171" cy="-192" rx="27" ry="18"/>
<text text-anchor="middle" x="171" y="-188.3" font-family="Times,serif" font-size="14.00">8</text>
</g>
<!-- 1&#45;&#45;8 -->
<g id="edge9" class="edge">
<title>1&#45;&#45;8</title>
<path fill="none" stroke="black" d="M69.67,-522.98C60.87,-506.32 49,-479.2 49,-454 49,-454 49,-454 49,-278 49,-265.71 116.56,-224.64 151.13,-204.43"/>
<text text-anchor="middle" x="66" y="-362.3" font-family="Times,serif" font-size="14.00">[7,9]</text>
</g>
<!-- 10 -->
<g id="node10" class="node">
<title>10</title>
<ellipse fill="none" stroke="black" cx="135" cy="-279" rx="27" ry="18"/>
<text text-anchor="middle" x="135" y="-275.3" font-family="Times,serif" font-size="14.00">10</text>
</g>
<!-- 1&#45;&#45;10 -->
<g id="edge17" class="edge">
<title>1&#45;&#45;10</title>
<path fill="none" stroke="black" d="M82.67,-522.01C92.82,-475.08 121.15,-344.06 131.31,-297.06"/>
<text text-anchor="middle" x="126" y="-405.8" font-family="Times,serif" font-size="14.00">[7,9]</text>
</g>
<!-- 9 -->
<g id="node9" class="node">
<title>9</title>
<ellipse fill="none" stroke="black" cx="350" cy="-366" rx="27" ry="18"/>
<text text-anchor="middle" x="350" y="-362.3" font-family="Times,serif" font-size="14.00">9</text>
</g>
<!-- 2&#45;&#45;9 -->
<g id="edge8" class="edge">
<title>2&#45;&#45;9</title>
<path fill="none" stroke="black" d="M414.46,-442.05C402.96,-435.98 389.13,-427.39 379,-417 369.61,-407.37 362.11,-394.13 357.08,-383.68"/>
<text text-anchor="middle" x="400.5" y="-405.8" font-family="Times,serif" font-size="14.00">[8,11]</text>
</g>
<!-- 3 -->
<g id="node3" class="node">
<title>3</title>
<ellipse fill="none" stroke="black" cx="397" cy="-192" rx="27" ry="18"/>
<text text-anchor="middle" x="397" y="-188.3" font-family="Times,serif" font-size="14.00">3</text>
</g>
<!-- 3&#45;&#45;2 -->
<g id="edge19" class="edge">
<title>3&#45;&#45;2</title>
<path fill="none" stroke="black" d="M408.35,-208.55C417.25,-221.76 428.96,-241.62 434,-261 450.23,-323.42 442.95,-401.25 438.52,-435.03"/>
<text text-anchor="middle" x="464.5" y="-318.8" font-family="Times,serif" font-size="14.00">[9,12]</text>
</g>
<!-- 3&#45;&#45;5 -->
<g id="edge7" class="edge">
<title>3&#45;&#45;5</title>
<path fill="none" stroke="black" d="M386.36,-175.41C375.96,-160.17 360.21,-137.08 349.77,-121.78"/>
<text text-anchor="middle" x="392.5" y="-144.8" font-family="Times,serif" font-size="14.00">[9,11]</text>
</g>
<!-- 3&#45;&#45;9 -->
<g id="edge21" class="edge">
<title>3&#45;&#45;9</title>
<path fill="none" stroke="black" d="M396.26,-210.28C395.6,-219.98 394.35,-232.26 392,-243 383.52,-281.73 366.69,-325.23 357.11,-348.38"/>
<text text-anchor="middle" x="408.5" y="-275.3" font-family="Times,serif" font-size="14.00">[8,10]</text>
</g>
<!-- 4 -->
<g id="node4" class="node">
<title>4</title>
<ellipse fill="none" stroke="black" cx="559" cy="-18" rx="27" ry="18"/>
<text text-anchor="middle" x="559" y="-14.3" font-family="Times,serif" font-size="14.00">4</text>
</g>
<!-- 4&#45;&#45;2 -->
<g id="edge14" class="edge">
<title>4&#45;&#45;2</title>
<path fill="none" stroke="black" d="M585.03,-23.3C624.26,-31.42 694,-53.04 694,-104 694,-367 694,-367 694,-367 694,-404.16 661.06,-402.15 627,-417 571.99,-440.98 501.14,-448.54 463.07,-450.91"/>
<text text-anchor="middle" x="711" y="-231.8" font-family="Times,serif" font-size="14.00">[1,3]</text>
</g>
<!-- 4&#45;&#45;9 -->
<g id="edge11" class="edge">
<title>4&#45;&#45;9</title>
<path fill="none" stroke="black" d="M550.61,-35.13C542.68,-51.88 532,-79.07 532,-104 532,-280 532,-280 532,-280 532,-347.48 428.02,-361.51 377.25,-364.34"/>
<text text-anchor="middle" x="549" y="-188.3" font-family="Times,serif" font-size="14.00">[6,9]</text>
</g>
<!-- 5&#45;&#45;2 -->
<g id="edge24" class="edge">
<title>5&#45;&#45;2</title>
<path fill="none" stroke="black" d="M365.78,-108.01C438.11,-114.18 632,-135.85 632,-191 632,-367 632,-367 632,-367 632,-439.7 517.11,-450.9 463.25,-452.16"/>
<text text-anchor="middle" x="649" y="-275.3" font-family="Times,serif" font-size="14.00">[6,8]</text>
</g>
<!-- 5&#45;&#45;4 -->
<g id="edge6" class="edge">
<title>5&#45;&#45;4</title>
<path fill="none" stroke="black" d="M361.72,-95.22C403.87,-78.94 493.77,-44.2 536.08,-27.86"/>
<text text-anchor="middle" x="479" y="-57.8" font-family="Times,serif" font-size="14.00">[1,4]</text>
</g>
<!-- 6 -->
<g id="node6" class="node">
<title>6</title>
<ellipse fill="none" stroke="black" cx="435" cy="-18" rx="27" ry="18"/>
<text text-anchor="middle" x="435" y="-14.3" font-family="Times,serif" font-size="14.00">6</text>
</g>
<!-- 5&#45;&#45;6 -->
<g id="edge18" class="edge">
<title>5&#45;&#45;6</title>
<path fill="none" stroke="black" d="M340.08,-86.94C341.57,-76.35 345.03,-63.08 353,-54 367.5,-37.48 391.14,-28.52 409.32,-23.81"/>
<text text-anchor="middle" x="370" y="-57.8" font-family="Times,serif" font-size="14.00">[4,7]</text>
</g>
<!-- 7 -->
<g id="node7" class="node">
<title>7</title>
<ellipse fill="none" stroke="black" cx="269" cy="-453" rx="27" ry="18"/>
<text text-anchor="middle" x="269" y="-449.3" font-family="Times,serif" font-size="14.00">7</text>
</g>
<!-- 7&#45;&#45;4 -->
<g id="edge23" class="edge">
<title>7&#45;&#45;4</title>
<path fill="none" stroke="black" d="M295.9,-450.05C328.29,-446.81 383.62,-438.4 426,-417 478.58,-390.44 488.56,-375.49 526,-330 598.97,-241.33 573.89,-86.9 562.97,-35.89"/>
<text text-anchor="middle" x="586" y="-231.8" font-family="Times,serif" font-size="14.00">[2,4]</text>
</g>
<!-- 7&#45;&#45;5 -->
<g id="edge4" class="edge">
<title>7&#45;&#45;5</title>
<path fill="none" stroke="black" d="M263.77,-435.04C255.34,-408.63 237.49,-356.43 216,-315 211.57,-306.47 206.79,-306.2 204,-297 199.36,-281.69 199.53,-276.36 204,-261 223.01,-195.73 288.48,-141.77 320.74,-118.43"/>
<text text-anchor="middle" x="221" y="-275.3" font-family="Times,serif" font-size="14.00">[6,9]</text>
</g>
<!-- 7&#45;&#45;9 -->
<g id="edge10" class="edge">
<title>7&#45;&#45;9</title>
<path fill="none" stroke="black" d="M278.57,-435.73C285.03,-425.46 294.16,-412.24 304,-402 312.21,-393.46 322.62,-385.36 331.46,-379.1"/>
<text text-anchor="middle" x="321" y="-405.8" font-family="Times,serif" font-size="14.00">[2,4]</text>
</g>
<!-- 7&#45;&#45;10 -->
<g id="edge25" class="edge">
<title>7&#45;&#45;10</title>
<path fill="none" stroke="black" d="M249.51,-440.36C239.22,-433.91 226.57,-425.5 216,-417 199.59,-403.81 194.1,-401.23 182,-384 162.3,-355.95 147.76,-318.32 140.4,-296.86"/>
<text text-anchor="middle" x="199" y="-362.3" font-family="Times,serif" font-size="14.00">[7,9]</text>
</g>
<!-- 8&#45;&#45;5 -->
<g id="edge2" class="edge">
<title>8&#45;&#45;5</title>
<path fill="none" stroke="black" d="M168.81,-173.62C168.47,-162.91 170.01,-149.61 178,-141 195.9,-121.71 271.24,-112.07 312.2,-108.17"/>
<text text-anchor="middle" x="195" y="-144.8" font-family="Times,serif" font-size="14.00">[6,9]</text>
</g>
<!-- 8&#45;&#45;9 -->
<g id="edge13" class="edge">
<title>8&#45;&#45;9</title>
<path fill="none" stroke="black" d="M185.79,-207.21C219.4,-239.51 301.27,-318.17 335.05,-350.63"/>
<text text-anchor="middle" x="299.5" y="-275.3" font-family="Times,serif" font-size="14.00">[7,10]</text>
</g>
<!-- 9&#45;&#45;5 -->
<g id="edge22" class="edge">
<title>9&#45;&#45;5</title>
<path fill="none" stroke="black" d="M347.44,-348.08C344.02,-324.57 338.15,-280.67 336,-243 333.54,-200.01 336.06,-149.32 337.75,-123.32"/>
<text text-anchor="middle" x="362" y="-231.8" font-family="Times,serif" font-size="14.00">[10,12]</text>
</g>
<!-- 9&#45;&#45;6 -->
<g id="edge15" class="edge">
<title>9&#45;&#45;6</title>
<path fill="none" stroke="black" d="M376.49,-361.67C410.74,-356.75 467.49,-346.33 480,-330 489.39,-317.75 451.65,-69 448,-54 446.5,-47.83 444.24,-41.25 442.03,-35.49"/>
<text text-anchor="middle" x="488" y="-188.3" font-family="Times,serif" font-size="14.00">[4,7]</text>
</g>
<!-- 9&#45;&#45;10 -->
<g id="edge20" class="edge">
<title>9&#45;&#45;10</title>
<path fill="none" stroke="black" d="M324.41,-360.24C297.7,-354.78 254.91,-344.65 220,-330 195.69,-319.8 169.87,-303.78 153.15,-292.63"/>
<text text-anchor="middle" x="237" y="-318.8" font-family="Times,serif" font-size="14.00">[2,4]</text>
</g>
<!-- 10&#45;&#45;3 -->
<g id="edge12" class="edge">
<title>10&#45;&#45;3</title>
<path fill="none" stroke="black" d="M157.02,-268.55C163.13,-266.01 169.8,-263.33 176,-261 245.91,-234.77 330.9,-210.76 372.15,-199.59"/>
<text text-anchor="middle" x="293.5" y="-231.8" font-family="Times,serif" font-size="14.00">[9,11]</text>
</g>
<!-- 10&#45;&#45;5 -->
<g id="edge16" class="edge">
<title>10&#45;&#45;5</title>
<path fill="none" stroke="black" d="M118.94,-264.24C96.97,-243.7 62.48,-204.23 83,-174 108.95,-135.76 251.97,-115.65 312.22,-108.77"/>
<text text-anchor="middle" x="109" y="-188.3" font-family="Times,serif" font-size="14.00">[10,12]</text>
</g>
<!-- 10&#45;&#45;8 -->
<g id="edge5" class="edge">
<title>10&#45;&#45;8</title>
<path fill="none" stroke="black" d="M142.11,-261.21C148.46,-246.21 157.71,-224.37 164.02,-209.47"/>
<text text-anchor="middle" x="173" y="-231.8" font-family="Times,serif" font-size="14.00">[3,5]</text>
</g>
</g>
</svg>
