graph G {
1;
2;
3;
4;
5;
6;
7;
8;
9;
10;
11;
12;
8--11  [label="[2,9]", low=2, up=9];
4--11  [label="[5,13]", low=5, up=13];
8--9  [label="[3,11]", low=3, up=11];
3--10  [label="[7,14]", low=7, up=14];
10--12  [label="[4,11]", low=4, up=11];
8--3  [label="[4,13]", low=4, up=13];
3--9  [label="[8,15]", low=8, up=15];
6--10  [label="[4,13]", low=4, up=13];
7--5  [label="[2,10]", low=2, up=10];
4--7  [label="[1,9]", low=1, up=9];
6--7  [label="[7,15]", low=7, up=15];
12--11  [label="[9,16]", low=9, up=16];
9--7  [label="[6,14]", low=6, up=14];
1--11  [label="[9,18]", low=9, up=18];
1--6  [label="[2,11]", low=2, up=11];
1--8  [label="[7,15]", low=7, up=15];
12--2  [label="[9,18]", low=9, up=18];
11--3  [label="[1,10]", low=1, up=10];
2--10  [label="[2,11]", low=2, up=11];
6--9  [label="[7,14]", low=7, up=14];
9--12  [label="[3,11]", low=3, up=11];
11--10  [label="[7,14]", low=7, up=14];
5--1  [label="[8,15]", low=8, up=15];
1--9  [label="[9,16]", low=9, up=16];
2--3  [label="[4,11]", low=4, up=11];
1--7  [label="[3,10]", low=3, up=10];
4--5  [label="[4,11]", low=4, up=11];
10--5  [label="[2,11]", low=2, up=11];
7--12  [label="[10,17]", low=10, up=17];
11--5  [label="[7,14]", low=7, up=14];
4--2  [label="[7,16]", low=7, up=16];
10--9  [label="[3,12]", low=3, up=12];
1--4  [label="[5,13]", low=5, up=13];
7--2  [label="[4,12]", low=4, up=12];
3--7  [label="[8,17]", low=8, up=17];
11--9  [label="[5,12]", low=5, up=12];
6--4  [label="[5,12]", low=5, up=12];
2--5  [label="[8,17]", low=8, up=17];
8--6  [label="[2,11]", low=2, up=11];
2--6  [label="[8,17]", low=8, up=17];
9--4  [label="[7,16]", low=7, up=16];
8--7  [label="[7,15]", low=7, up=15];
}
