graph G {
1;
2;
3;
4;
5;
6;
7;
8;
9;
10;
11;
12;
3--11  [label="[9,18]", low=9, up=18];
1--7  [label="[7,16]", low=7, up=16];
7--8  [label="[5,14]", low=5, up=14];
2--3  [label="[4,11]", low=4, up=11];
9--4  [label="[9,17]", low=9, up=17];
11--1  [label="[6,15]", low=6, up=15];
2--10  [label="[6,13]", low=6, up=13];
8--11  [label="[10,19]", low=10, up=19];
1--4  [label="[1,9]", low=1, up=9];
4--5  [label="[4,11]", low=4, up=11];
6--3  [label="[6,14]", low=6, up=14];
7--9  [label="[10,18]", low=10, up=18];
1--5  [label="[9,17]", low=9, up=17];
9--1  [label="[5,14]", low=5, up=14];
12--1  [label="[1,8]", low=1, up=8];
3--8  [label="[8,15]", low=8, up=15];
8--12  [label="[8,15]", low=8, up=15];
9--8  [label="[9,17]", low=9, up=17];
4--8  [label="[4,13]", low=4, up=13];
2--8  [label="[6,14]", low=6, up=14];
9--2  [label="[1,9]", low=1, up=9];
3--7  [label="[10,17]", low=10, up=17];
3--1  [label="[2,11]", low=2, up=11];
3--4  [label="[1,8]", low=1, up=8];
9--12  [label="[1,10]", low=1, up=10];
10--4  [label="[8,17]", low=8, up=17];
5--12  [label="[10,19]", low=10, up=19];
11--9  [label="[10,18]", low=10, up=18];
6--7  [label="[3,11]", low=3, up=11];
6--10  [label="[6,13]", low=6, up=13];
12--2  [label="[10,19]", low=10, up=19];
11--6  [label="[8,15]", low=8, up=15];
6--2  [label="[1,10]", low=1, up=10];
8--10  [label="[5,12]", low=5, up=12];
11--10  [label="[1,8]", low=1, up=8];
5--2  [label="[4,13]", low=4, up=13];
12--6  [label="[5,14]", low=5, up=14];
12--3  [label="[7,15]", low=7, up=15];
3--10  [label="[2,10]", low=2, up=10];
2--11  [label="[10,19]", low=10, up=19];
6--4  [label="[1,8]", low=1, up=8];
10--7  [label="[6,13]", low=6, up=13];
}
