graph G {
1;
2;
3;
4;
5;
6;
7;
8;
9;
10;
11;
12;
4--3  [label="[3,12]", low=3, up=12];
7--11  [label="[3,12]", low=3, up=12];
3--11  [label="[8,17]", low=8, up=17];
1--10  [label="[8,15]", low=8, up=15];
10--5  [label="[6,13]", low=6, up=13];
8--2  [label="[1,9]", low=1, up=9];
8--3  [label="[5,14]", low=5, up=14];
7--8  [label="[1,10]", low=1, up=10];
1--11  [label="[7,15]", low=7, up=15];
5--1  [label="[6,15]", low=6, up=15];
12--9  [label="[7,16]", low=7, up=16];
1--7  [label="[7,14]", low=7, up=14];
1--6  [label="[4,13]", low=4, up=13];
8--4  [label="[1,8]", low=1, up=8];
7--2  [label="[2,10]", low=2, up=10];
6--5  [label="[7,14]", low=7, up=14];
4--1  [label="[6,13]", low=6, up=13];
4--6  [label="[6,13]", low=6, up=13];
7--5  [label="[2,9]", low=2, up=9];
5--2  [label="[9,17]", low=9, up=17];
4--2  [label="[1,10]", low=1, up=10];
8--1  [label="[5,14]", low=5, up=14];
7--9  [label="[9,16]", low=9, up=16];
10--4  [label="[3,12]", low=3, up=12];
3--7  [label="[10,17]", low=10, up=17];
10--7  [label="[10,17]", low=10, up=17];
10--2  [label="[7,16]", low=7, up=16];
3--6  [label="[2,9]", low=2, up=9];
12--11  [label="[1,8]", low=1, up=8];
12--10  [label="[9,17]", low=9, up=17];
9--10  [label="[10,17]", low=10, up=17];
9--1  [label="[9,16]", low=9, up=16];
2--3  [label="[1,9]", low=1, up=9];
11--10  [label="[9,18]", low=9, up=18];
3--1  [label="[7,16]", low=7, up=16];
12--7  [label="[4,11]", low=4, up=11];
12--1  [label="[8,15]", low=8, up=15];
2--1  [label="[4,12]", low=4, up=12];
6--11  [label="[6,14]", low=6, up=14];
9--11  [label="[3,10]", low=3, up=10];
5--4  [label="[6,14]", low=6, up=14];
9--4  [label="[10,17]", low=10, up=17];
}
