graph G {
1;
2;
3;
4;
5;
6;
7;
8;
9;
10;
11;
12;
3--1  [label="[9,16]", low=9, up=16];
1--8  [label="[6,13]", low=6, up=13];
6--3  [label="[7,14]", low=7, up=14];
9--12  [label="[6,14]", low=6, up=14];
6--2  [label="[10,18]", low=10, up=18];
1--11  [label="[1,9]", low=1, up=9];
6--10  [label="[7,14]", low=7, up=14];
12--2  [label="[9,16]", low=9, up=16];
11--9  [label="[3,10]", low=3, up=10];
9--2  [label="[10,17]", low=10, up=17];
7--11  [label="[7,15]", low=7, up=15];
10--11  [label="[6,14]", low=6, up=14];
8--2  [label="[8,17]", low=8, up=17];
9--8  [label="[10,17]", low=10, up=17];
9--1  [label="[9,18]", low=9, up=18];
12--4  [label="[6,13]", low=6, up=13];
10--2  [label="[3,10]", low=3, up=10];
1--10  [label="[5,13]", low=5, up=13];
12--10  [label="[3,12]", low=3, up=12];
5--3  [label="[7,15]", low=7, up=15];
4--3  [label="[8,15]", low=8, up=15];
2--11  [label="[10,17]", low=10, up=17];
10--8  [label="[2,11]", low=2, up=11];
6--1  [label="[3,10]", low=3, up=10];
1--5  [label="[6,14]", low=6, up=14];
8--11  [label="[3,12]", low=3, up=12];
6--9  [label="[7,15]", low=7, up=15];
1--7  [label="[9,16]", low=9, up=16];
7--12  [label="[7,15]", low=7, up=15];
6--12  [label="[3,11]", low=3, up=11];
9--5  [label="[2,9]", low=2, up=9];
6--4  [label="[4,12]", low=4, up=12];
1--4  [label="[8,17]", low=8, up=17];
6--7  [label="[9,17]", low=9, up=17];
9--3  [label="[8,16]", low=8, up=16];
12--1  [label="[7,14]", low=7, up=14];
4--10  [label="[5,14]", low=5, up=14];
5--12  [label="[4,12]", low=4, up=12];
7--5  [label="[3,10]", low=3, up=10];
5--10  [label="[9,16]", low=9, up=16];
3--12  [label="[9,18]", low=9, up=18];
6--5  [label="[7,15]", low=7, up=15];
}
