<?xml version="1.0" encoding="UTF-8" standalone="no"?>
<!DOCTYPE svg PUBLIC "-//W3C//DTD SVG 1.1//EN"
 "http://www.w3.org/Graphics/SVG/1.1/DTD/svg11.dtd">
<!-- Generated by graphviz version 2.43.0 (0)
 -->
<!-- Title: G Pages: 1 -->
<svg width="771pt" height="827pt"
 viewBox="0.00 0.00 771.00 827.00" xmlns="http://www.w3.org/2000/svg" xmlns:xlink="http://www.w3.org/1999/xlink">
<g id="graph0" class="graph" transform="scale(1 1) rotate(0) translate(4 823)">
<title>G</title>
<polygon fill="white" stroke="transparent" points="-4,4 -4,-823 767,-823 767,4 -4,4"/>
<!-- 1 -->
<g id="node1" class="node">
<title>1</title>
<ellipse fill="none" stroke="black" cx="554" cy="-801" rx="27" ry="18"/>
<text text-anchor="middle" x="554" y="-797.3" font-family="Times,serif" font-size="14.00">1</text>
</g>
<!-- 3 -->
<g id="node3" class="node">
<title>3</title>
<ellipse fill="none" stroke="black" cx="462" cy="-714" rx="27" ry="18"/>
<text text-anchor="middle" x="462" y="-710.3" font-family="Times,serif" font-size="14.00">3</text>
</g>
<!-- 1&#45;&#45;3 -->
<g id="edge12" class="edge">
<title>1&#45;&#45;3</title>
<path fill="none" stroke="black" d="M538.81,-785.96C521.76,-770.21 494.27,-744.81 477.21,-729.06"/>
<text text-anchor="middle" x="534.5" y="-753.8" font-family="Times,serif" font-size="14.00">[4,13]</text>
</g>
<!-- 5 -->
<g id="node5" class="node">
<title>5</title>
<ellipse fill="none" stroke="black" cx="146" cy="-453" rx="27" ry="18"/>
<text text-anchor="middle" x="146" y="-449.3" font-family="Times,serif" font-size="14.00">5</text>
</g>
<!-- 1&#45;&#45;5 -->
<g id="edge31" class="edge">
<title>1&#45;&#45;5</title>
<path fill="none" stroke="black" d="M527.04,-798.55C419.24,-792.4 25,-766.39 25,-715 25,-715 25,-715 25,-539 25,-492.66 85.15,-469.41 120.63,-459.73"/>
<text text-anchor="middle" x="42" y="-623.3" font-family="Times,serif" font-size="14.00">[8,9]</text>
</g>
<!-- 7 -->
<g id="node7" class="node">
<title>7</title>
<ellipse fill="none" stroke="black" cx="118" cy="-540" rx="27" ry="18"/>
<text text-anchor="middle" x="118" y="-536.3" font-family="Times,serif" font-size="14.00">7</text>
</g>
<!-- 1&#45;&#45;7 -->
<g id="edge13" class="edge">
<title>1&#45;&#45;7</title>
<path fill="none" stroke="black" d="M528.15,-795.41C496.79,-789.58 442.48,-778.62 397,-765 255.19,-722.54 180.67,-722.65 113,-591 107.74,-580.76 109.23,-567.78 111.91,-557.62"/>
<text text-anchor="middle" x="197.5" y="-666.8" font-family="Times,serif" font-size="14.00">[6,12]</text>
</g>
<!-- 10 -->
<g id="node10" class="node">
<title>10</title>
<ellipse fill="none" stroke="black" cx="435" cy="-366" rx="27" ry="18"/>
<text text-anchor="middle" x="435" y="-362.3" font-family="Times,serif" font-size="14.00">10</text>
</g>
<!-- 1&#45;&#45;10 -->
<g id="edge24" class="edge">
<title>1&#45;&#45;10</title>
<path fill="none" stroke="black" d="M560.33,-783.34C566.19,-766.4 574,-739.26 574,-715 574,-715 574,-715 574,-539 574,-463.94 492.94,-403.21 454.62,-378.7"/>
<text text-anchor="middle" x="595.5" y="-579.8" font-family="Times,serif" font-size="14.00">[8,11]</text>
</g>
<!-- 2 -->
<g id="node2" class="node">
<title>2</title>
<ellipse fill="none" stroke="black" cx="513" cy="-279" rx="27" ry="18"/>
<text text-anchor="middle" x="513" y="-275.3" font-family="Times,serif" font-size="14.00">2</text>
</g>
<!-- 2&#45;&#45;1 -->
<g id="edge9" class="edge">
<title>2&#45;&#45;1</title>
<path fill="none" stroke="black" d="M533.71,-290.64C553.41,-301.97 582.05,-321.87 596,-348 647.06,-443.67 629.04,-483.12 618,-591 609.96,-669.56 615.59,-693.53 582,-765 578.56,-772.32 573.29,-779.47 568.25,-785.38"/>
<text text-anchor="middle" x="647.5" y="-536.3" font-family="Times,serif" font-size="14.00">[8,13]</text>
</g>
<!-- 2&#45;&#45;3 -->
<g id="edge11" class="edge">
<title>2&#45;&#45;3</title>
<path fill="none" stroke="black" d="M511.31,-297.13C510.35,-306.78 509.12,-319.07 508,-330 497.6,-431.36 495.24,-456.73 484,-558 478.08,-611.37 479.11,-625.08 470,-678 468.99,-683.9 467.61,-690.29 466.28,-695.98"/>
<text text-anchor="middle" x="508" y="-492.8" font-family="Times,serif" font-size="14.00">[1,4]</text>
</g>
<!-- 8 -->
<g id="node8" class="node">
<title>8</title>
<ellipse fill="none" stroke="black" cx="410" cy="-192" rx="27" ry="18"/>
<text text-anchor="middle" x="410" y="-188.3" font-family="Times,serif" font-size="14.00">8</text>
</g>
<!-- 2&#45;&#45;8 -->
<g id="edge8" class="edge">
<title>2&#45;&#45;8</title>
<path fill="none" stroke="black" d="M493.29,-266.67C482.73,-260.25 469.73,-251.77 459,-243 445.83,-232.23 432.41,-218.29 422.95,-207.86"/>
<text text-anchor="middle" x="476" y="-231.8" font-family="Times,serif" font-size="14.00">[2,3]</text>
</g>
<!-- 4 -->
<g id="node4" class="node">
<title>4</title>
<ellipse fill="none" stroke="black" cx="271" cy="-627" rx="27" ry="18"/>
<text text-anchor="middle" x="271" y="-623.3" font-family="Times,serif" font-size="14.00">4</text>
</g>
<!-- 3&#45;&#45;4 -->
<g id="edge33" class="edge">
<title>3&#45;&#45;4</title>
<path fill="none" stroke="black" d="M435.12,-711.2C404.62,-708.15 354.27,-699.94 317,-678 302.57,-669.5 289.99,-655.05 281.65,-643.86"/>
<text text-anchor="middle" x="334" y="-666.8" font-family="Times,serif" font-size="14.00">[6,9]</text>
</g>
<!-- 3&#45;&#45;5 -->
<g id="edge20" class="edge">
<title>3&#45;&#45;5</title>
<path fill="none" stroke="black" d="M443.32,-700.71C433.95,-694.29 422.59,-686.09 413,-678 337.84,-614.54 333.23,-582.93 256,-522 226.92,-499.06 189.63,-477.44 166.79,-464.97"/>
<text text-anchor="middle" x="349.5" y="-579.8" font-family="Times,serif" font-size="14.00">[7,13]</text>
</g>
<!-- 3&#45;&#45;10 -->
<g id="edge16" class="edge">
<title>3&#45;&#45;10</title>
<path fill="none" stroke="black" d="M459.09,-695.86C454.38,-667.35 445.19,-608.34 441,-558 435.68,-494.03 434.97,-417.64 434.95,-384.16"/>
<text text-anchor="middle" x="462.5" y="-536.3" font-family="Times,serif" font-size="14.00">[6,10]</text>
</g>
<!-- 4&#45;&#45;1 -->
<g id="edge2" class="edge">
<title>4&#45;&#45;1</title>
<path fill="none" stroke="black" d="M276.27,-644.72C280.19,-655.17 286.36,-668.42 295,-678 360.09,-750.15 476.81,-783.25 528.35,-794.87"/>
<text text-anchor="middle" x="384.5" y="-710.3" font-family="Times,serif" font-size="14.00">[1,10]</text>
</g>
<!-- 4&#45;&#45;7 -->
<g id="edge21" class="edge">
<title>4&#45;&#45;7</title>
<path fill="none" stroke="black" d="M244.3,-623.27C206.37,-618.82 139.76,-608.67 124,-591 116.2,-582.26 114.92,-568.97 115.48,-558.29"/>
<text text-anchor="middle" x="145.5" y="-579.8" font-family="Times,serif" font-size="14.00">[7,16]</text>
</g>
<!-- 4&#45;&#45;8 -->
<g id="edge18" class="edge">
<title>4&#45;&#45;8</title>
<path fill="none" stroke="black" d="M277.23,-609.4C291.81,-570.35 328.91,-469.54 356,-384 376.18,-320.27 396.79,-243.44 405.58,-209.97"/>
<text text-anchor="middle" x="371.5" y="-405.8" font-family="Times,serif" font-size="14.00">[5,12]</text>
</g>
<!-- 9 -->
<g id="node9" class="node">
<title>9</title>
<ellipse fill="none" stroke="black" cx="380" cy="-18" rx="27" ry="18"/>
<text text-anchor="middle" x="380" y="-14.3" font-family="Times,serif" font-size="14.00">9</text>
</g>
<!-- 4&#45;&#45;9 -->
<g id="edge15" class="edge">
<title>4&#45;&#45;9</title>
<path fill="none" stroke="black" d="M244.12,-624.84C211.23,-622.39 154.76,-614.76 113,-591 73,-568.24 0,-487.15 0,-454 0,-454 0,-454 0,-104 0,-31.58 266.16,-20.84 352.98,-19.27"/>
<text text-anchor="middle" x="21.5" y="-318.8" font-family="Times,serif" font-size="14.00">[8,16]</text>
</g>
<!-- 5&#45;&#45;4 -->
<g id="edge4" class="edge">
<title>5&#45;&#45;4</title>
<path fill="none" stroke="black" d="M154.48,-470.12C165.81,-491.11 187.01,-528.58 209,-558 223.73,-577.71 243.18,-598.31 256.33,-611.6"/>
<text text-anchor="middle" x="230.5" y="-536.3" font-family="Times,serif" font-size="14.00">[6,13]</text>
</g>
<!-- 6 -->
<g id="node6" class="node">
<title>6</title>
<ellipse fill="none" stroke="black" cx="319" cy="-105" rx="27" ry="18"/>
<text text-anchor="middle" x="319" y="-101.3" font-family="Times,serif" font-size="14.00">6</text>
</g>
<!-- 5&#45;&#45;6 -->
<g id="edge32" class="edge">
<title>5&#45;&#45;6</title>
<path fill="none" stroke="black" d="M143.66,-434.81C137.57,-382.27 127.05,-222.41 211,-141 232.93,-119.73 267.9,-111.39 292.07,-108.11"/>
<text text-anchor="middle" x="171.5" y="-275.3" font-family="Times,serif" font-size="14.00">[2,10]</text>
</g>
<!-- 5&#45;&#45;9 -->
<g id="edge17" class="edge">
<title>5&#45;&#45;9</title>
<path fill="none" stroke="black" d="M134.39,-436.63C123.22,-420.27 108,-393.19 108,-367 108,-367 108,-367 108,-104 108,-52.92 284.98,-28.94 353.42,-21.58"/>
<text text-anchor="middle" x="129.5" y="-231.8" font-family="Times,serif" font-size="14.00">[5,13]</text>
</g>
<!-- 5&#45;&#45;10 -->
<g id="edge35" class="edge">
<title>5&#45;&#45;10</title>
<path fill="none" stroke="black" d="M168.88,-443.11C196.74,-432.48 245.37,-414.54 288,-402 330.16,-389.6 380.08,-378.44 409.56,-372.21"/>
<text text-anchor="middle" x="305" y="-405.8" font-family="Times,serif" font-size="14.00">[1,2]</text>
</g>
<!-- 6&#45;&#45;2 -->
<g id="edge26" class="edge">
<title>6&#45;&#45;2</title>
<path fill="none" stroke="black" d="M342.32,-114.54C358.86,-120.96 381.34,-130.44 400,-141 421.9,-153.39 427.39,-157.06 446,-174 469.53,-195.42 476.41,-200.85 493,-228 499.34,-238.37 504.39,-251.1 507.84,-261.12"/>
<text text-anchor="middle" x="497" y="-188.3" font-family="Times,serif" font-size="14.00">[5,7]</text>
</g>
<!-- 6&#45;&#45;4 -->
<g id="edge5" class="edge">
<title>6&#45;&#45;4</title>
<path fill="none" stroke="black" d="M317.42,-123.14C310.13,-202.1 279.83,-530.32 272.57,-608.99"/>
<text text-anchor="middle" x="318.5" y="-362.3" font-family="Times,serif" font-size="14.00">[8,14]</text>
</g>
<!-- 6&#45;&#45;7 -->
<g id="edge10" class="edge">
<title>6&#45;&#45;7</title>
<path fill="none" stroke="black" d="M297.56,-116.22C287.08,-122.17 275.02,-130.56 267,-141 174.71,-261.09 227.51,-326.54 182,-471 177.1,-486.55 176.45,-491.49 166,-504 158.2,-513.34 147.39,-521.5 138,-527.59"/>
<text text-anchor="middle" x="227.5" y="-318.8" font-family="Times,serif" font-size="14.00">[9,19]</text>
</g>
<!-- 6&#45;&#45;9 -->
<g id="edge30" class="edge">
<title>6&#45;&#45;9</title>
<path fill="none" stroke="black" d="M329.48,-88.07C336.08,-78.16 344.87,-65.22 353,-54 357.77,-47.41 363.22,-40.28 367.97,-34.18"/>
<text text-anchor="middle" x="374.5" y="-57.8" font-family="Times,serif" font-size="14.00">[4,13]</text>
</g>
<!-- 7&#45;&#45;5 -->
<g id="edge23" class="edge">
<title>7&#45;&#45;5</title>
<path fill="none" stroke="black" d="M115.73,-521.86C115.06,-511.98 115.31,-499.48 119,-489 121.65,-481.47 126.6,-474.28 131.55,-468.4"/>
<text text-anchor="middle" x="140.5" y="-492.8" font-family="Times,serif" font-size="14.00">[6,13]</text>
</g>
<!-- 7&#45;&#45;8 -->
<g id="edge7" class="edge">
<title>7&#45;&#45;8</title>
<path fill="none" stroke="black" d="M142.91,-532.47C167.97,-525.47 204.4,-514.03 215,-504 245.53,-475.13 243.61,-458.17 252,-417 253.33,-410.47 253.38,-408.52 252,-402 250.18,-393.44 245.82,-392.56 244,-384 240.68,-368.35 237.48,-362.61 244,-348 272.47,-284.19 310.52,-291.31 361,-243 373.12,-231.4 386.41,-217.78 396.09,-207.68"/>
<text text-anchor="middle" x="265.5" y="-362.3" font-family="Times,serif" font-size="14.00">[5,10]</text>
</g>
<!-- 7&#45;&#45;9 -->
<g id="edge19" class="edge">
<title>7&#45;&#45;9</title>
<path fill="none" stroke="black" d="M111.1,-522.28C93.08,-477.06 46,-348.25 46,-236.5 46,-236.5 46,-236.5 46,-104 46,-40.8 273.44,-24.02 352.95,-20.09"/>
<text text-anchor="middle" x="67" y="-275.3" font-family="Times,serif" font-size="14.00">[5,9]</text>
</g>
<!-- 8&#45;&#45;1 -->
<g id="edge22" class="edge">
<title>8&#45;&#45;1</title>
<path fill="none" stroke="black" d="M430.06,-204.33C433.96,-206.34 438.06,-208.33 442,-210 465.67,-220.07 473.74,-217.02 497,-228 521.75,-239.68 528.66,-242.69 549,-261 585.68,-294.02 594.85,-304.42 618,-348 672.46,-450.52 691,-549.06 691,-582.5 691,-715 691,-715 691,-715 691,-766.64 619.84,-788 580.09,-795.9"/>
<text text-anchor="middle" x="694" y="-492.8" font-family="Times,serif" font-size="14.00">[1,4]</text>
</g>
<!-- 8&#45;&#45;6 -->
<g id="edge34" class="edge">
<title>8&#45;&#45;6</title>
<path fill="none" stroke="black" d="M388.75,-180.76C377.34,-174.6 363.5,-166.02 353,-156 342.67,-146.14 333.72,-132.65 327.6,-122.16"/>
<text text-anchor="middle" x="374.5" y="-144.8" font-family="Times,serif" font-size="14.00">[4,11]</text>
</g>
<!-- 8&#45;&#45;9 -->
<g id="edge6" class="edge">
<title>8&#45;&#45;9</title>
<path fill="none" stroke="black" d="M410.03,-173.8C409.67,-147.52 407.41,-95.99 396,-54 394.28,-47.68 391.54,-41.07 388.8,-35.32"/>
<text text-anchor="middle" x="429.5" y="-101.3" font-family="Times,serif" font-size="14.00">[8,15]</text>
</g>
<!-- 9&#45;&#45;1 -->
<g id="edge29" class="edge">
<title>9&#45;&#45;1</title>
<path fill="none" stroke="black" d="M407.1,-19.8C489.09,-22.95 729,-37.82 729,-104 729,-715 729,-715 729,-715 729,-780.02 630.05,-795.32 580.96,-798.91"/>
<text text-anchor="middle" x="746" y="-405.8" font-family="Times,serif" font-size="14.00">[3,8]</text>
</g>
<!-- 9&#45;&#45;3 -->
<g id="edge1" class="edge">
<title>9&#45;&#45;3</title>
<path fill="none" stroke="black" d="M406.77,-21.84C473.88,-29.71 644,-54.53 644,-104 644,-280 644,-280 644,-280 644,-470.48 573.08,-509.11 485,-678 481.57,-684.58 477.22,-691.47 473.23,-697.38"/>
<text text-anchor="middle" x="657" y="-362.3" font-family="Times,serif" font-size="14.00">[1,8]</text>
</g>
<!-- 10&#45;&#45;2 -->
<g id="edge27" class="edge">
<title>10&#45;&#45;2</title>
<path fill="none" stroke="black" d="M441.14,-348.42C445.55,-338.02 452.27,-324.78 461,-315 469.77,-305.18 481.87,-296.82 492.19,-290.74"/>
<text text-anchor="middle" x="482.5" y="-318.8" font-family="Times,serif" font-size="14.00">[9,15]</text>
</g>
<!-- 10&#45;&#45;4 -->
<g id="edge25" class="edge">
<title>10&#45;&#45;4</title>
<path fill="none" stroke="black" d="M427.63,-383.35C406.91,-428.89 347.75,-556.11 318,-591 310.21,-600.14 299.62,-608.29 290.46,-614.42"/>
<text text-anchor="middle" x="398.5" y="-492.8" font-family="Times,serif" font-size="14.00">[9,15]</text>
</g>
<!-- 10&#45;&#45;6 -->
<g id="edge28" class="edge">
<title>10&#45;&#45;6</title>
<path fill="none" stroke="black" d="M425.32,-348.78C411.78,-325.73 386.84,-281.98 369,-243 351.79,-205.4 349.99,-194.92 336,-156 332.03,-144.96 327.78,-132.46 324.52,-122.72"/>
<text text-anchor="middle" x="390.5" y="-231.8" font-family="Times,serif" font-size="14.00">[2,11]</text>
</g>
<!-- 10&#45;&#45;8 -->
<g id="edge3" class="edge">
<title>10&#45;&#45;8</title>
<path fill="none" stroke="black" d="M432.51,-347.88C427.72,-314.91 417.26,-242.97 412.48,-210.05"/>
<text text-anchor="middle" x="446.5" y="-275.3" font-family="Times,serif" font-size="14.00">[8,10]</text>
</g>
<!-- 10&#45;&#45;9 -->
<g id="edge14" class="edge">
<title>10&#45;&#45;9</title>
<path fill="none" stroke="black" d="M459.95,-358.66C487.87,-350.03 531.5,-331.54 549,-297 556.23,-282.73 551.73,-276.77 549,-261 534.03,-174.39 513.65,-152.47 455,-87 436.59,-66.45 412.55,-45.53 396.71,-32.42"/>
<text text-anchor="middle" x="558.5" y="-188.3" font-family="Times,serif" font-size="14.00">[9,14]</text>
</g>
</g>
</svg>
