graph G {
1;
2;
3;
4;
5;
6;
7;
8;
9;
10;
11;
12;
6--3  [label="[2,11]", low=2, up=11];
5--1  [label="[6,13]", low=6, up=13];
3--12  [label="[8,10]", low=8, up=10];
7--3  [label="[3,10]", low=3, up=10];
1--3  [label="[2,9]", low=2, up=9];
10--6  [label="[4,14]", low=4, up=14];
9--5  [label="[8,17]", low=8, up=17];
5--3  [label="[9,14]", low=9, up=14];
3--11  [label="[1,3]", low=1, up=3];
10--9  [label="[4,12]", low=4, up=12];
8--5  [label="[3,11]", low=3, up=11];
12--4  [label="[1,4]", low=1, up=4];
3--4  [label="[10,18]", low=10, up=18];
1--9  [label="[10,16]", low=10, up=16];
9--12  [label="[5,14]", low=5, up=14];
8--4  [label="[8,15]", low=8, up=15];
9--3  [label="[3,6]", low=3, up=6];
8--3  [label="[8,17]", low=8, up=17];
7--2  [label="[3,12]", low=3, up=12];
12--8  [label="[6,11]", low=6, up=11];
6--8  [label="[3,12]", low=3, up=12];
6--4  [label="[2,7]", low=2, up=7];
11--7  [label="[8,16]", low=8, up=16];
6--9  [label="[5,14]", low=5, up=14];
1--2  [label="[6,10]", low=6, up=10];
12--7  [label="[3,12]", low=3, up=12];
10--12  [label="[10,14]", low=10, up=14];
4--2  [label="[5,9]", low=5, up=9];
3--2  [label="[9,14]", low=9, up=14];
10--2  [label="[6,16]", low=6, up=16];
}
