graph G {
1;
2;
3;
4;
5;
6;
7;
8;
9;
10;
11;
12;
10--1  [label="[7,10]", low=7, up=10];
2--3  [label="[9,16]", low=9, up=16];
6--8  [label="[1,2]", low=1, up=2];
10--2  [label="[3,10]", low=3, up=10];
1--11  [label="[8,12]", low=8, up=12];
12--1  [label="[10,19]", low=10, up=19];
7--3  [label="[7,17]", low=7, up=17];
8--9  [label="[5,15]", low=5, up=15];
10--8  [label="[9,14]", low=9, up=14];
6--7  [label="[4,5]", low=4, up=5];
10--6  [label="[5,7]", low=5, up=7];
6--12  [label="[2,3]", low=2, up=3];
4--9  [label="[8,16]", low=8, up=16];
6--5  [label="[8,11]", low=8, up=11];
5--11  [label="[6,7]", low=6, up=7];
5--9  [label="[5,11]", low=5, up=11];
2--7  [label="[7,14]", low=7, up=14];
4--6  [label="[3,4]", low=3, up=4];
9--12  [label="[7,16]", low=7, up=16];
3--9  [label="[2,8]", low=2, up=8];
10--7  [label="[10,20]", low=10, up=20];
7--12  [label="[3,4]", low=3, up=4];
6--1  [label="[5,11]", low=5, up=11];
9--6  [label="[3,11]", low=3, up=11];
12--3  [label="[1,4]", low=1, up=4];
6--11  [label="[3,10]", low=3, up=10];
7--1  [label="[1,10]", low=1, up=10];
9--1  [label="[9,14]", low=9, up=14];
11--9  [label="[10,16]", low=10, up=16];
11--7  [label="[1,8]", low=1, up=8];
}
