graph G {
1;
2;
3;
4;
5;
6;
7;
8;
9;
10;
11;
12;
10--1  [label="[2,5]", low=2, up=5];
2--3  [label="[9,11]", low=9, up=11];
6--8  [label="[9,19]", low=9, up=19];
10--2  [label="[6,11]", low=6, up=11];
1--11  [label="[5,10]", low=5, up=10];
12--1  [label="[2,10]", low=2, up=10];
7--3  [label="[4,8]", low=4, up=8];
8--9  [label="[6,9]", low=6, up=9];
10--8  [label="[6,13]", low=6, up=13];
6--7  [label="[5,15]", low=5, up=15];
10--6  [label="[3,6]", low=3, up=6];
6--12  [label="[2,4]", low=2, up=4];
4--9  [label="[2,5]", low=2, up=5];
6--5  [label="[7,12]", low=7, up=12];
5--11  [label="[4,14]", low=4, up=14];
5--9  [label="[10,13]", low=10, up=13];
2--7  [label="[2,8]", low=2, up=8];
4--6  [label="[1,10]", low=1, up=10];
9--12  [label="[4,14]", low=4, up=14];
3--9  [label="[10,13]", low=10, up=13];
10--7  [label="[7,13]", low=7, up=13];
7--12  [label="[4,11]", low=4, up=11];
6--1  [label="[8,10]", low=8, up=10];
9--6  [label="[4,9]", low=4, up=9];
12--3  [label="[7,11]", low=7, up=11];
6--11  [label="[8,15]", low=8, up=15];
7--1  [label="[10,12]", low=10, up=12];
9--1  [label="[8,16]", low=8, up=16];
11--9  [label="[2,12]", low=2, up=12];
11--7  [label="[8,12]", low=8, up=12];
}
