<?xml version="1.0" encoding="UTF-8" standalone="no"?>
<!DOCTYPE svg PUBLIC "-//W3C//DTD SVG 1.1//EN"
 "http://www.w3.org/Graphics/SVG/1.1/DTD/svg11.dtd">
<!-- Generated by graphviz version 2.43.0 (0)
 -->
<!-- Title: G Pages: 1 -->
<svg width="752pt" height="566pt"
 viewBox="0.00 0.00 752.00 566.00" xmlns="http://www.w3.org/2000/svg" xmlns:xlink="http://www.w3.org/1999/xlink">
<g id="graph0" class="graph" transform="scale(1 1) rotate(0) translate(4 562)">
<title>G</title>
<polygon fill="white" stroke="transparent" points="-4,4 -4,-562 748,-562 748,4 -4,4"/>
<!-- 1 -->
<g id="node1" class="node">
<title>1</title>
<ellipse fill="none" stroke="black" cx="125" cy="-453" rx="27" ry="18"/>
<text text-anchor="middle" x="125" y="-449.3" font-family="Times,serif" font-size="14.00">1</text>
</g>
<!-- 4 -->
<g id="node4" class="node">
<title>4</title>
<ellipse fill="none" stroke="black" cx="450" cy="-366" rx="27" ry="18"/>
<text text-anchor="middle" x="450" y="-362.3" font-family="Times,serif" font-size="14.00">4</text>
</g>
<!-- 1&#45;&#45;4 -->
<g id="edge25" class="edge">
<title>1&#45;&#45;4</title>
<path fill="none" stroke="black" d="M149.69,-445.54C210.13,-429.73 364.94,-389.25 425.34,-373.45"/>
<text text-anchor="middle" x="327.5" y="-405.8" font-family="Times,serif" font-size="14.00">[4,13]</text>
</g>
<!-- 10 -->
<g id="node10" class="node">
<title>10</title>
<ellipse fill="none" stroke="black" cx="255" cy="-279" rx="27" ry="18"/>
<text text-anchor="middle" x="255" y="-275.3" font-family="Times,serif" font-size="14.00">10</text>
</g>
<!-- 1&#45;&#45;10 -->
<g id="edge10" class="edge">
<title>1&#45;&#45;10</title>
<path fill="none" stroke="black" d="M143.02,-439.3C150.97,-433.15 160.06,-425.3 167,-417 200.46,-377 195,-357.66 225,-315 229.88,-308.06 235.86,-300.87 241.2,-294.82"/>
<text text-anchor="middle" x="222" y="-362.3" font-family="Times,serif" font-size="14.00">[2,4]</text>
</g>
<!-- 2 -->
<g id="node2" class="node">
<title>2</title>
<ellipse fill="none" stroke="black" cx="569" cy="-453" rx="27" ry="18"/>
<text text-anchor="middle" x="569" y="-449.3" font-family="Times,serif" font-size="14.00">2</text>
</g>
<!-- 3 -->
<g id="node3" class="node">
<title>3</title>
<ellipse fill="none" stroke="black" cx="412" cy="-105" rx="27" ry="18"/>
<text text-anchor="middle" x="412" y="-101.3" font-family="Times,serif" font-size="14.00">3</text>
</g>
<!-- 2&#45;&#45;3 -->
<g id="edge18" class="edge">
<title>2&#45;&#45;3</title>
<path fill="none" stroke="black" d="M572.8,-435.17C576.31,-418.09 581,-390.85 581,-367 581,-367 581,-367 581,-191 581,-128.11 486.43,-111.74 438.78,-107.49"/>
<text text-anchor="middle" x="598" y="-275.3" font-family="Times,serif" font-size="14.00">[3,4]</text>
</g>
<!-- 2&#45;&#45;4 -->
<g id="edge24" class="edge">
<title>2&#45;&#45;4</title>
<path fill="none" stroke="black" d="M546.49,-443.03C532.21,-436.81 513.72,-427.72 499,-417 485.25,-406.98 471.88,-392.97 462.59,-382.32"/>
<text text-anchor="middle" x="520.5" y="-405.8" font-family="Times,serif" font-size="14.00">[7,11]</text>
</g>
<!-- 5 -->
<g id="node5" class="node">
<title>5</title>
<ellipse fill="none" stroke="black" cx="503" cy="-18" rx="27" ry="18"/>
<text text-anchor="middle" x="503" y="-14.3" font-family="Times,serif" font-size="14.00">5</text>
</g>
<!-- 2&#45;&#45;5 -->
<g id="edge7" class="edge">
<title>2&#45;&#45;5</title>
<path fill="none" stroke="black" d="M588.83,-440.68C610.75,-426.52 643,-400.07 643,-367 643,-367 643,-367 643,-104 643,-51.4 569.89,-30.43 529.33,-22.85"/>
<text text-anchor="middle" x="664.5" y="-231.8" font-family="Times,serif" font-size="14.00">[6,13]</text>
</g>
<!-- 9 -->
<g id="node9" class="node">
<title>9</title>
<ellipse fill="none" stroke="black" cx="293" cy="-192" rx="27" ry="18"/>
<text text-anchor="middle" x="293" y="-188.3" font-family="Times,serif" font-size="14.00">9</text>
</g>
<!-- 2&#45;&#45;9 -->
<g id="edge4" class="edge">
<title>2&#45;&#45;9</title>
<path fill="none" stroke="black" d="M563.98,-435.27C549.53,-388.13 506.58,-255.83 472,-228 448.87,-209.39 363.6,-199.26 319.62,-195.18"/>
<text text-anchor="middle" x="544" y="-318.8" font-family="Times,serif" font-size="14.00">[2,6]</text>
</g>
<!-- 3&#45;&#45;1 -->
<g id="edge22" class="edge">
<title>3&#45;&#45;1</title>
<path fill="none" stroke="black" d="M392.43,-117.53C388.42,-119.57 384.15,-121.52 380,-123 342.01,-136.61 330.51,-132.77 291,-141 187.31,-162.61 58,-85.09 58,-191 58,-367 58,-367 58,-367 58,-398.38 86.51,-424.99 106.34,-439.7"/>
<text text-anchor="middle" x="75" y="-275.3" font-family="Times,serif" font-size="14.00">[5,9]</text>
</g>
<!-- 3&#45;&#45;4 -->
<g id="edge23" class="edge">
<title>3&#45;&#45;4</title>
<path fill="none" stroke="black" d="M415.02,-123.02C421.27,-158.58 435.78,-243.41 445,-315 446.4,-325.9 447.64,-338.18 448.53,-347.85"/>
<text text-anchor="middle" x="451" y="-231.8" font-family="Times,serif" font-size="14.00">[1,5]</text>
</g>
<!-- 3&#45;&#45;5 -->
<g id="edge8" class="edge">
<title>3&#45;&#45;5</title>
<path fill="none" stroke="black" d="M426.15,-89.25C436,-79.13 449.56,-65.5 462,-54 469.84,-46.76 478.82,-39.03 486.38,-32.68"/>
<text text-anchor="middle" x="483.5" y="-57.8" font-family="Times,serif" font-size="14.00">[8,12]</text>
</g>
<!-- 4&#45;&#45;5 -->
<g id="edge21" class="edge">
<title>4&#45;&#45;5</title>
<path fill="none" stroke="black" d="M476.3,-361.44C495.31,-357.35 519.72,-348.6 532,-330 595.21,-234.3 534.18,-84.45 511.05,-35.25"/>
<text text-anchor="middle" x="576" y="-188.3" font-family="Times,serif" font-size="14.00">[1,5]</text>
</g>
<!-- 4&#45;&#45;10 -->
<g id="edge6" class="edge">
<title>4&#45;&#45;10</title>
<path fill="none" stroke="black" d="M430.17,-353.63C411.03,-342.9 381.06,-326.76 354,-315 328.92,-304.1 299.24,-293.96 278.96,-287.43"/>
<text text-anchor="middle" x="404.5" y="-318.8" font-family="Times,serif" font-size="14.00">[6,15]</text>
</g>
<!-- 5&#45;&#45;1 -->
<g id="edge14" class="edge">
<title>5&#45;&#45;1</title>
<path fill="none" stroke="black" d="M475.96,-20.68C371.48,-27.53 0,-55.29 0,-104 0,-367 0,-367 0,-367 0,-414.63 62.83,-437.45 99.4,-446.7"/>
<text text-anchor="middle" x="21.5" y="-231.8" font-family="Times,serif" font-size="14.00">[4,10]</text>
</g>
<!-- 6 -->
<g id="node6" class="node">
<title>6</title>
<ellipse fill="none" stroke="black" cx="569" cy="-540" rx="27" ry="18"/>
<text text-anchor="middle" x="569" y="-536.3" font-family="Times,serif" font-size="14.00">6</text>
</g>
<!-- 6&#45;&#45;2 -->
<g id="edge12" class="edge">
<title>6&#45;&#45;2</title>
<path fill="none" stroke="black" d="M569,-521.8C569,-507.05 569,-485.92 569,-471.18"/>
<text text-anchor="middle" x="586" y="-492.8" font-family="Times,serif" font-size="14.00">[2,4]</text>
</g>
<!-- 6&#45;&#45;5 -->
<g id="edge16" class="edge">
<title>6&#45;&#45;5</title>
<path fill="none" stroke="black" d="M594.76,-534.44C633.18,-526 701,-504.02 701,-454 701,-454 701,-454 701,-104 701,-30.49 584.34,-19.75 530.12,-18.73"/>
<text text-anchor="middle" x="722.5" y="-275.3" font-family="Times,serif" font-size="14.00">[7,13]</text>
</g>
<!-- 7 -->
<g id="node7" class="node">
<title>7</title>
<ellipse fill="none" stroke="black" cx="342" cy="-453" rx="27" ry="18"/>
<text text-anchor="middle" x="342" y="-449.3" font-family="Times,serif" font-size="14.00">7</text>
</g>
<!-- 6&#45;&#45;7 -->
<g id="edge20" class="edge">
<title>6&#45;&#45;7</title>
<path fill="none" stroke="black" d="M545.98,-530.38C502.48,-514.09 408.63,-478.95 365.08,-462.64"/>
<text text-anchor="middle" x="486" y="-492.8" font-family="Times,serif" font-size="14.00">[3,4]</text>
</g>
<!-- 7&#45;&#45;3 -->
<g id="edge19" class="edge">
<title>7&#45;&#45;3</title>
<path fill="none" stroke="black" d="M344.75,-435.06C346.86,-425.02 350.38,-412.29 356,-402 376.52,-364.42 404.78,-370.02 420,-330 422.37,-323.77 422.79,-321.06 420,-315 414.86,-303.83 404.14,-308.17 399,-297 371.71,-237.67 393.97,-156.89 405.8,-122.54"/>
<text text-anchor="middle" x="416" y="-275.3" font-family="Times,serif" font-size="14.00">[8,9]</text>
</g>
<!-- 7&#45;&#45;4 -->
<g id="edge15" class="edge">
<title>7&#45;&#45;4</title>
<path fill="none" stroke="black" d="M366.3,-445.08C382.6,-439.51 403.78,-430.38 419,-417 429.43,-407.83 437.53,-394.29 442.83,-383.61"/>
<text text-anchor="middle" x="448" y="-405.8" font-family="Times,serif" font-size="14.00">[1,5]</text>
</g>
<!-- 8 -->
<g id="node8" class="node">
<title>8</title>
<ellipse fill="none" stroke="black" cx="204" cy="-192" rx="27" ry="18"/>
<text text-anchor="middle" x="204" y="-188.3" font-family="Times,serif" font-size="14.00">8</text>
</g>
<!-- 7&#45;&#45;8 -->
<g id="edge2" class="edge">
<title>7&#45;&#45;8</title>
<path fill="none" stroke="black" d="M326.77,-437.8C300.39,-412.29 246.41,-355.86 219,-297 205.75,-268.56 203.54,-231.39 203.51,-210.06"/>
<text text-anchor="middle" x="257.5" y="-318.8" font-family="Times,serif" font-size="14.00">[7,16]</text>
</g>
<!-- 7&#45;&#45;9 -->
<g id="edge9" class="edge">
<title>7&#45;&#45;9</title>
<path fill="none" stroke="black" d="M334.81,-435.44C332.46,-429.67 329.95,-423.11 328,-417 315.92,-379.1 313.7,-369.21 307,-330 303.13,-307.38 297.19,-241.63 294.46,-210.16"/>
<text text-anchor="middle" x="328.5" y="-318.8" font-family="Times,serif" font-size="14.00">[9,16]</text>
</g>
<!-- 8&#45;&#45;1 -->
<g id="edge1" class="edge">
<title>8&#45;&#45;1</title>
<path fill="none" stroke="black" d="M179.96,-200.23C165.07,-205.77 146.47,-214.74 134,-228 105.22,-258.61 105.39,-273.83 97,-315 88.13,-358.53 106.25,-409.83 117.3,-435.55"/>
<text text-anchor="middle" x="114" y="-318.8" font-family="Times,serif" font-size="14.00">[8,9]</text>
</g>
<!-- 8&#45;&#45;3 -->
<g id="edge13" class="edge">
<title>8&#45;&#45;3</title>
<path fill="none" stroke="black" d="M226.66,-181.74C266.67,-165.39 349.38,-131.59 389.37,-115.25"/>
<text text-anchor="middle" x="341.5" y="-144.8" font-family="Times,serif" font-size="14.00">[6,15]</text>
</g>
<!-- 8&#45;&#45;5 -->
<g id="edge17" class="edge">
<title>8&#45;&#45;5</title>
<path fill="none" stroke="black" d="M218.78,-176.58C241.68,-154.85 287.81,-113.45 333,-87 381.83,-58.42 444.95,-36.71 478.87,-26.13"/>
<text text-anchor="middle" x="354.5" y="-101.3" font-family="Times,serif" font-size="14.00">[2,10]</text>
</g>
<!-- 9&#45;&#45;1 -->
<g id="edge5" class="edge">
<title>9&#45;&#45;1</title>
<path fill="none" stroke="black" d="M269.17,-200.62C247.34,-207.98 217.09,-219.27 208,-228 147.13,-286.46 130.59,-393.52 126.36,-434.98"/>
<text text-anchor="middle" x="174.5" y="-318.8" font-family="Times,serif" font-size="14.00">[7,11]</text>
</g>
<!-- 10&#45;&#45;8 -->
<g id="edge11" class="edge">
<title>10&#45;&#45;8</title>
<path fill="none" stroke="black" d="M238.08,-264.83C231.32,-258.81 223.97,-251.2 219,-243 212.89,-232.93 209.11,-220.19 206.88,-210.09"/>
<text text-anchor="middle" x="236" y="-231.8" font-family="Times,serif" font-size="14.00">[2,9]</text>
</g>
<!-- 10&#45;&#45;9 -->
<g id="edge3" class="edge">
<title>10&#45;&#45;9</title>
<path fill="none" stroke="black" d="M254.98,-260.64C255.55,-250.69 257.3,-238.19 262,-228 265.6,-220.19 271.54,-212.84 277.25,-206.92"/>
<text text-anchor="middle" x="279" y="-231.8" font-family="Times,serif" font-size="14.00">[2,7]</text>
</g>
</g>
</svg>
