<?xml version="1.0" encoding="UTF-8" standalone="no"?>
<!DOCTYPE svg PUBLIC "-//W3C//DTD SVG 1.1//EN"
 "http://www.w3.org/Graphics/SVG/1.1/DTD/svg11.dtd">
<!-- Generated by graphviz version 2.43.0 (0)
 -->
<!-- Title: G Pages: 1 -->
<svg width="570pt" height="653pt"
 viewBox="0.00 0.00 570.00 653.00" xmlns="http://www.w3.org/2000/svg" xmlns:xlink="http://www.w3.org/1999/xlink">
<g id="graph0" class="graph" transform="scale(1 1) rotate(0) translate(4 649)">
<title>G</title>
<polygon fill="white" stroke="transparent" points="-4,4 -4,-649 566,-649 566,4 -4,4"/>
<!-- 1 -->
<g id="node1" class="node">
<title>1</title>
<ellipse fill="none" stroke="black" cx="372" cy="-627" rx="27" ry="18"/>
<text text-anchor="middle" x="372" y="-623.3" font-family="Times,serif" font-size="14.00">1</text>
</g>
<!-- 4 -->
<g id="node4" class="node">
<title>4</title>
<ellipse fill="none" stroke="black" cx="293" cy="-540" rx="27" ry="18"/>
<text text-anchor="middle" x="293" y="-536.3" font-family="Times,serif" font-size="14.00">4</text>
</g>
<!-- 1&#45;&#45;4 -->
<g id="edge12" class="edge">
<title>1&#45;&#45;4</title>
<path fill="none" stroke="black" d="M352.41,-614.23C343.12,-608.06 332.28,-599.92 324,-591 314.69,-580.97 306.63,-567.74 301.07,-557.41"/>
<text text-anchor="middle" x="341" y="-579.8" font-family="Times,serif" font-size="14.00">[1,9]</text>
</g>
<!-- 6 -->
<g id="node6" class="node">
<title>6</title>
<ellipse fill="none" stroke="black" cx="363" cy="-279" rx="27" ry="18"/>
<text text-anchor="middle" x="363" y="-275.3" font-family="Times,serif" font-size="14.00">6</text>
</g>
<!-- 1&#45;&#45;6 -->
<g id="edge23" class="edge">
<title>1&#45;&#45;6</title>
<path fill="none" stroke="black" d="M396.46,-618.94C428.6,-607.99 481,-583.6 481,-541 481,-541 481,-541 481,-365 481,-319.55 422.66,-295.99 388.02,-286.01"/>
<text text-anchor="middle" x="498" y="-449.3" font-family="Times,serif" font-size="14.00">[1,7]</text>
</g>
<!-- 2 -->
<g id="node2" class="node">
<title>2</title>
<ellipse fill="none" stroke="black" cx="205" cy="-105" rx="27" ry="18"/>
<text text-anchor="middle" x="205" y="-101.3" font-family="Times,serif" font-size="14.00">2</text>
</g>
<!-- 2&#45;&#45;1 -->
<g id="edge6" class="edge">
<title>2&#45;&#45;1</title>
<path fill="none" stroke="black" d="M211.72,-122.73C214.03,-128.51 216.64,-135.04 219,-141 236.93,-186.27 233.8,-201.33 259,-243 305.09,-319.21 372,-319.43 372,-408.5 372,-541 372,-541 372,-541 372,-564.46 372,-591.57 372,-608.74"/>
<text text-anchor="middle" x="390.5" y="-362.3" font-family="Times,serif" font-size="14.00">[7,16]</text>
</g>
<!-- 3 -->
<g id="node3" class="node">
<title>3</title>
<ellipse fill="none" stroke="black" cx="399" cy="-18" rx="27" ry="18"/>
<text text-anchor="middle" x="399" y="-14.3" font-family="Times,serif" font-size="14.00">3</text>
</g>
<!-- 2&#45;&#45;3 -->
<g id="edge19" class="edge">
<title>2&#45;&#45;3</title>
<path fill="none" stroke="black" d="M225.07,-92.68C244.43,-82 274.73,-65.89 302,-54 326.45,-43.34 355.3,-33.23 375.14,-26.64"/>
<text text-anchor="middle" x="323.5" y="-57.8" font-family="Times,serif" font-size="14.00">[6,15]</text>
</g>
<!-- 9 -->
<g id="node9" class="node">
<title>9</title>
<ellipse fill="none" stroke="black" cx="104" cy="-18" rx="27" ry="18"/>
<text text-anchor="middle" x="104" y="-14.3" font-family="Times,serif" font-size="14.00">9</text>
</g>
<!-- 2&#45;&#45;9 -->
<g id="edge24" class="edge">
<title>2&#45;&#45;9</title>
<path fill="none" stroke="black" d="M188.77,-90.34C169.92,-74.48 139.02,-48.47 120.19,-32.62"/>
<text text-anchor="middle" x="178" y="-57.8" font-family="Times,serif" font-size="14.00">[2,4]</text>
</g>
<!-- 4&#45;&#45;3 -->
<g id="edge7" class="edge">
<title>4&#45;&#45;3</title>
<path fill="none" stroke="black" d="M308.86,-524.99C336.28,-499.79 392.17,-443.8 419,-384 463.72,-284.33 475.15,-248.55 456,-141 448.78,-100.44 443.26,-90.42 424,-54 420.37,-47.13 415.56,-40.07 411.14,-34.1"/>
<text text-anchor="middle" x="483.5" y="-275.3" font-family="Times,serif" font-size="14.00">[6,14]</text>
</g>
<!-- 5 -->
<g id="node5" class="node">
<title>5</title>
<ellipse fill="none" stroke="black" cx="132" cy="-453" rx="27" ry="18"/>
<text text-anchor="middle" x="132" y="-449.3" font-family="Times,serif" font-size="14.00">5</text>
</g>
<!-- 4&#45;&#45;5 -->
<g id="edge20" class="edge">
<title>4&#45;&#45;5</title>
<path fill="none" stroke="black" d="M266.14,-537C238.72,-533.8 196.03,-525.5 166,-504 154.22,-495.57 145.26,-481.7 139.5,-470.7"/>
<text text-anchor="middle" x="183" y="-492.8" font-family="Times,serif" font-size="14.00">[1,9]</text>
</g>
<!-- 7 -->
<g id="node7" class="node">
<title>7</title>
<ellipse fill="none" stroke="black" cx="184" cy="-192" rx="27" ry="18"/>
<text text-anchor="middle" x="184" y="-188.3" font-family="Times,serif" font-size="14.00">7</text>
</g>
<!-- 4&#45;&#45;7 -->
<g id="edge17" class="edge">
<title>4&#45;&#45;7</title>
<path fill="none" stroke="black" d="M272.24,-528.26C248.84,-514.49 214,-488.25 214,-454 214,-454 214,-454 214,-278 214,-252.8 202.13,-225.68 193.33,-209.02"/>
<text text-anchor="middle" x="235.5" y="-362.3" font-family="Times,serif" font-size="14.00">[4,11]</text>
</g>
<!-- 8 -->
<g id="node8" class="node">
<title>8</title>
<ellipse fill="none" stroke="black" cx="340" cy="-192" rx="27" ry="18"/>
<text text-anchor="middle" x="340" y="-188.3" font-family="Times,serif" font-size="14.00">8</text>
</g>
<!-- 4&#45;&#45;8 -->
<g id="edge21" class="edge">
<title>4&#45;&#45;8</title>
<path fill="none" stroke="black" d="M293.47,-521.79C294.57,-488.22 297.93,-411.69 307,-348 314.22,-297.34 328.37,-238.47 335.57,-210.07"/>
<text text-anchor="middle" x="328.5" y="-362.3" font-family="Times,serif" font-size="14.00">[4,14]</text>
</g>
<!-- 5&#45;&#45;1 -->
<g id="edge9" class="edge">
<title>5&#45;&#45;1</title>
<path fill="none" stroke="black" d="M135.23,-471.12C137.67,-481.23 141.7,-493.97 148,-504 166.57,-533.55 175.67,-539.09 205,-558 251.57,-588.02 313.58,-609.03 347.41,-619.15"/>
<text text-anchor="middle" x="231" y="-536.3" font-family="Times,serif" font-size="14.00">[10,12]</text>
</g>
<!-- 5&#45;&#45;7 -->
<g id="edge5" class="edge">
<title>5&#45;&#45;7</title>
<path fill="none" stroke="black" d="M137.34,-435.02C139,-429.34 140.72,-422.93 142,-417 151.65,-372.21 148.71,-360.06 157,-315 163.95,-277.24 174.19,-233.37 179.86,-209.9"/>
<text text-anchor="middle" x="178.5" y="-318.8" font-family="Times,serif" font-size="14.00">[9,14]</text>
</g>
<!-- 5&#45;&#45;9 -->
<g id="edge16" class="edge">
<title>5&#45;&#45;9</title>
<path fill="none" stroke="black" d="M106.24,-447.44C67.82,-439 0,-417.02 0,-367 0,-367 0,-367 0,-104 0,-62.84 49.44,-38.03 80.14,-26.59"/>
<text text-anchor="middle" x="17" y="-231.8" font-family="Times,serif" font-size="14.00">[4,9]</text>
</g>
<!-- 10 -->
<g id="node10" class="node">
<title>10</title>
<ellipse fill="none" stroke="black" cx="101" cy="-366" rx="27" ry="18"/>
<text text-anchor="middle" x="101" y="-362.3" font-family="Times,serif" font-size="14.00">10</text>
</g>
<!-- 5&#45;&#45;10 -->
<g id="edge14" class="edge">
<title>5&#45;&#45;10</title>
<path fill="none" stroke="black" d="M119.34,-436.85C115.08,-430.99 110.72,-424.01 108,-417 103.94,-406.54 102.19,-394.04 101.46,-384.16"/>
<text text-anchor="middle" x="125" y="-405.8" font-family="Times,serif" font-size="14.00">[5,6]</text>
</g>
<!-- 6&#45;&#45;3 -->
<g id="edge4" class="edge">
<title>6&#45;&#45;3</title>
<path fill="none" stroke="black" d="M376.72,-263.3C381.58,-257.39 386.66,-250.25 390,-243 419.35,-179.21 423.1,-156.75 415,-87 412.94,-69.29 407.97,-49.5 404.11,-35.85"/>
<text text-anchor="middle" x="435" y="-144.8" font-family="Times,serif" font-size="14.00">[5,9]</text>
</g>
<!-- 6&#45;&#45;7 -->
<g id="edge1" class="edge">
<title>6&#45;&#45;7</title>
<path fill="none" stroke="black" d="M341.41,-267.75C306.91,-251.37 239.76,-219.48 205.39,-203.16"/>
<text text-anchor="middle" x="306.5" y="-231.8" font-family="Times,serif" font-size="14.00">[3,12]</text>
</g>
<!-- 6&#45;&#45;8 -->
<g id="edge25" class="edge">
<title>6&#45;&#45;8</title>
<path fill="none" stroke="black" d="M358.46,-261.21C354.42,-246.31 348.56,-224.65 344.53,-209.76"/>
<text text-anchor="middle" x="369" y="-231.8" font-family="Times,serif" font-size="14.00">[2,3]</text>
</g>
<!-- 7&#45;&#45;2 -->
<g id="edge18" class="edge">
<title>7&#45;&#45;2</title>
<path fill="none" stroke="black" d="M182.28,-174.03C181.79,-164.21 182.04,-151.71 185,-141 186.86,-134.25 190.32,-127.44 193.85,-121.64"/>
<text text-anchor="middle" x="202" y="-144.8" font-family="Times,serif" font-size="14.00">[1,6]</text>
</g>
<!-- 7&#45;&#45;9 -->
<g id="edge8" class="edge">
<title>7&#45;&#45;9</title>
<path fill="none" stroke="black" d="M166.17,-178.39C150.4,-166.17 128.2,-146.12 117,-123 103.35,-94.83 102.18,-57.57 102.87,-36.15"/>
<text text-anchor="middle" x="143" y="-101.3" font-family="Times,serif" font-size="14.00">[10,17]</text>
</g>
<!-- 8&#45;&#45;1 -->
<g id="edge15" class="edge">
<title>8&#45;&#45;1</title>
<path fill="none" stroke="black" d="M366.47,-195.95C403.22,-201.58 468.78,-217.46 501,-261 547.25,-323.49 514.99,-357.36 519,-435 522.71,-506.94 530.65,-545.26 475,-591 452.82,-609.23 420.67,-618.15 398.21,-622.39"/>
<text text-anchor="middle" x="540.5" y="-405.8" font-family="Times,serif" font-size="14.00">[6,12]</text>
</g>
<!-- 8&#45;&#45;2 -->
<g id="edge22" class="edge">
<title>8&#45;&#45;2</title>
<path fill="none" stroke="black" d="M317.57,-181.86C302.76,-175.44 283.17,-166.2 267,-156 250.16,-145.37 232.65,-130.88 220.55,-120.24"/>
<text text-anchor="middle" x="288.5" y="-144.8" font-family="Times,serif" font-size="14.00">[2,12]</text>
</g>
<!-- 8&#45;&#45;3 -->
<g id="edge3" class="edge">
<title>8&#45;&#45;3</title>
<path fill="none" stroke="black" d="M342.31,-174.03C345.49,-153.11 352.09,-116.68 363,-87 369.87,-68.32 380.94,-48.35 388.99,-34.92"/>
<text text-anchor="middle" x="389" y="-101.3" font-family="Times,serif" font-size="14.00">[10,12]</text>
</g>
<!-- 8&#45;&#45;9 -->
<g id="edge10" class="edge">
<title>8&#45;&#45;9</title>
<path fill="none" stroke="black" d="M332.17,-174.69C326.78,-164.39 318.98,-151.17 310,-141 268.52,-94.01 253.74,-84.54 199,-54 176.44,-41.41 148.46,-31.74 128.73,-25.79"/>
<text text-anchor="middle" x="310" y="-101.3" font-family="Times,serif" font-size="14.00">[4,5]</text>
</g>
<!-- 10&#45;&#45;2 -->
<g id="edge2" class="edge">
<title>10&#45;&#45;2</title>
<path fill="none" stroke="black" d="M100.81,-347.65C101.02,-321.17 103.34,-269.39 117,-228 131.73,-183.36 169.25,-141.18 190.23,-120.07"/>
<text text-anchor="middle" x="143" y="-231.8" font-family="Times,serif" font-size="14.00">[10,12]</text>
</g>
<!-- 10&#45;&#45;6 -->
<g id="edge13" class="edge">
<title>10&#45;&#45;6</title>
<path fill="none" stroke="black" d="M124.71,-357.31C174.47,-341.16 289.28,-303.92 339.15,-287.74"/>
<text text-anchor="middle" x="265" y="-318.8" font-family="Times,serif" font-size="14.00">[4,7]</text>
</g>
<!-- 10&#45;&#45;9 -->
<g id="edge11" class="edge">
<title>10&#45;&#45;9</title>
<path fill="none" stroke="black" d="M85.68,-350.95C70.34,-335.28 49,-308.37 49,-280 49,-280 49,-280 49,-104 49,-75 71.85,-48.07 88.09,-32.59"/>
<text text-anchor="middle" x="75" y="-188.3" font-family="Times,serif" font-size="14.00">[10,20]</text>
</g>
</g>
</svg>
