<?xml version="1.0" encoding="UTF-8" standalone="no"?>
<!DOCTYPE svg PUBLIC "-//W3C//DTD SVG 1.1//EN"
 "http://www.w3.org/Graphics/SVG/1.1/DTD/svg11.dtd">
<!-- Generated by graphviz version 2.43.0 (0)
 -->
<!-- Title: G Pages: 1 -->
<svg width="757pt" height="653pt"
 viewBox="0.00 0.00 757.00 653.00" xmlns="http://www.w3.org/2000/svg" xmlns:xlink="http://www.w3.org/1999/xlink">
<g id="graph0" class="graph" transform="scale(1 1) rotate(0) translate(4 649)">
<title>G</title>
<polygon fill="white" stroke="transparent" points="-4,4 -4,-649 753,-649 753,4 -4,4"/>
<!-- 1 -->
<g id="node1" class="node">
<title>1</title>
<ellipse fill="none" stroke="black" cx="245" cy="-627" rx="27" ry="18"/>
<text text-anchor="middle" x="245" y="-623.3" font-family="Times,serif" font-size="14.00">1</text>
</g>
<!-- 2 -->
<g id="node2" class="node">
<title>2</title>
<ellipse fill="none" stroke="black" cx="350" cy="-540" rx="27" ry="18"/>
<text text-anchor="middle" x="350" y="-536.3" font-family="Times,serif" font-size="14.00">2</text>
</g>
<!-- 1&#45;&#45;2 -->
<g id="edge9" class="edge">
<title>1&#45;&#45;2</title>
<path fill="none" stroke="black" d="M261.87,-612.34C281.58,-596.39 313.98,-570.16 333.52,-554.34"/>
<text text-anchor="middle" x="320" y="-579.8" font-family="Times,serif" font-size="14.00">[4,8]</text>
</g>
<!-- 3 -->
<g id="node3" class="node">
<title>3</title>
<ellipse fill="none" stroke="black" cx="412" cy="-105" rx="27" ry="18"/>
<text text-anchor="middle" x="412" y="-101.3" font-family="Times,serif" font-size="14.00">3</text>
</g>
<!-- 1&#45;&#45;3 -->
<g id="edge17" class="edge">
<title>1&#45;&#45;3</title>
<path fill="none" stroke="black" d="M270.91,-621.8C304.02,-614.9 360.13,-597.75 386,-558 446.15,-465.59 440.43,-425.17 436,-315 432.89,-237.48 435.84,-217.34 422,-141 420.92,-135.03 419.24,-128.62 417.57,-122.93"/>
<text text-anchor="middle" x="459.5" y="-362.3" font-family="Times,serif" font-size="14.00">[6,12]</text>
</g>
<!-- 9 -->
<g id="node9" class="node">
<title>9</title>
<ellipse fill="none" stroke="black" cx="260" cy="-18" rx="27" ry="18"/>
<text text-anchor="middle" x="260" y="-14.3" font-family="Times,serif" font-size="14.00">9</text>
</g>
<!-- 1&#45;&#45;9 -->
<g id="edge23" class="edge">
<title>1&#45;&#45;9</title>
<path fill="none" stroke="black" d="M218.78,-622.59C155.58,-613.63 0,-586.92 0,-541 0,-541 0,-541 0,-104 0,-66.49 33.55,-68.86 68,-54 123.54,-30.05 194.97,-22.48 233.13,-20.1"/>
<text text-anchor="middle" x="21.5" y="-318.8" font-family="Times,serif" font-size="14.00">[7,14]</text>
</g>
<!-- 10 -->
<g id="node10" class="node">
<title>10</title>
<ellipse fill="none" stroke="black" cx="245" cy="-453" rx="27" ry="18"/>
<text text-anchor="middle" x="245" y="-449.3" font-family="Times,serif" font-size="14.00">10</text>
</g>
<!-- 1&#45;&#45;10 -->
<g id="edge14" class="edge">
<title>1&#45;&#45;10</title>
<path fill="none" stroke="black" d="M245,-608.88C245,-575.91 245,-503.97 245,-471.05"/>
<text text-anchor="middle" x="266.5" y="-536.3" font-family="Times,serif" font-size="14.00">[8,11]</text>
</g>
<!-- 2&#45;&#45;10 -->
<g id="edge18" class="edge">
<title>2&#45;&#45;10</title>
<path fill="none" stroke="black" d="M327.47,-529.93C313.99,-523.83 297.02,-514.92 284,-504 272.36,-494.24 261.94,-480.47 254.8,-469.85"/>
<text text-anchor="middle" x="310" y="-492.8" font-family="Times,serif" font-size="14.00">[10,13]</text>
</g>
<!-- 3&#45;&#45;2 -->
<g id="edge25" class="edge">
<title>3&#45;&#45;2</title>
<path fill="none" stroke="black" d="M410.54,-123C404.78,-189.21 382.96,-429.83 364,-504 362.41,-510.21 359.99,-516.8 357.6,-522.56"/>
<text text-anchor="middle" x="412.5" y="-318.8" font-family="Times,serif" font-size="14.00">[9,13]</text>
</g>
<!-- 6 -->
<g id="node6" class="node">
<title>6</title>
<ellipse fill="none" stroke="black" cx="574" cy="-18" rx="27" ry="18"/>
<text text-anchor="middle" x="574" y="-14.3" font-family="Times,serif" font-size="14.00">6</text>
</g>
<!-- 3&#45;&#45;6 -->
<g id="edge4" class="edge">
<title>3&#45;&#45;6</title>
<path fill="none" stroke="black" d="M432.52,-93.23C463.59,-76.93 522.27,-46.14 553.39,-29.81"/>
<text text-anchor="middle" x="519" y="-57.8" font-family="Times,serif" font-size="14.00">[4,9]</text>
</g>
<!-- 3&#45;&#45;9 -->
<g id="edge22" class="edge">
<title>3&#45;&#45;9</title>
<path fill="none" stroke="black" d="M400.51,-88.53C391.62,-77.53 378.43,-63.15 364,-54 339.71,-38.59 307.89,-29.18 285.88,-24.06"/>
<text text-anchor="middle" x="398" y="-57.8" font-family="Times,serif" font-size="14.00">[1,8]</text>
</g>
<!-- 3&#45;&#45;10 -->
<g id="edge12" class="edge">
<title>3&#45;&#45;10</title>
<path fill="none" stroke="black" d="M396.23,-120.08C368.92,-145.4 313.08,-201.55 285,-261 277.45,-276.98 257.92,-399.77 254,-417 252.66,-422.87 251.06,-429.26 249.58,-434.96"/>
<text text-anchor="middle" x="306.5" y="-275.3" font-family="Times,serif" font-size="14.00">[4,10]</text>
</g>
<!-- 4 -->
<g id="node4" class="node">
<title>4</title>
<ellipse fill="none" stroke="black" cx="188" cy="-192" rx="27" ry="18"/>
<text text-anchor="middle" x="188" y="-188.3" font-family="Times,serif" font-size="14.00">4</text>
</g>
<!-- 4&#45;&#45;3 -->
<g id="edge15" class="edge">
<title>4&#45;&#45;3</title>
<path fill="none" stroke="black" d="M189.45,-173.67C191.3,-162.69 195.51,-149.08 205,-141 231.71,-118.26 335.3,-109.93 385.04,-107.19"/>
<text text-anchor="middle" x="231" y="-144.8" font-family="Times,serif" font-size="14.00">[10,12]</text>
</g>
<!-- 4&#45;&#45;9 -->
<g id="edge5" class="edge">
<title>4&#45;&#45;9</title>
<path fill="none" stroke="black" d="M186.69,-174.01C186.42,-164.19 186.92,-151.69 190,-141 202.03,-99.23 231.17,-56.57 247.82,-34.44"/>
<text text-anchor="middle" x="233.5" y="-101.3" font-family="Times,serif" font-size="14.00">[5,15]</text>
</g>
<!-- 4&#45;&#45;10 -->
<g id="edge20" class="edge">
<title>4&#45;&#45;10</title>
<path fill="none" stroke="black" d="M200.09,-208.23C204.17,-214.1 208.36,-221.07 211,-228 227.3,-270.82 216.52,-285.17 226,-330 227.72,-338.12 229.33,-339.87 231,-348 237.23,-378.34 241.36,-414.25 243.43,-434.95"/>
<text text-anchor="middle" x="247.5" y="-318.8" font-family="Times,serif" font-size="14.00">[3,12]</text>
</g>
<!-- 5 -->
<g id="node5" class="node">
<title>5</title>
<ellipse fill="none" stroke="black" cx="73" cy="-366" rx="27" ry="18"/>
<text text-anchor="middle" x="73" y="-362.3" font-family="Times,serif" font-size="14.00">5</text>
</g>
<!-- 5&#45;&#45;1 -->
<g id="edge7" class="edge">
<title>5&#45;&#45;1</title>
<path fill="none" stroke="black" d="M69.99,-384.01C63.59,-426.38 53.74,-537.1 114,-591 142.87,-616.81 188.73,-623.91 217.82,-625.68"/>
<text text-anchor="middle" x="87" y="-492.8" font-family="Times,serif" font-size="14.00">[2,6]</text>
</g>
<!-- 8 -->
<g id="node8" class="node">
<title>8</title>
<ellipse fill="none" stroke="black" cx="153" cy="-279" rx="27" ry="18"/>
<text text-anchor="middle" x="153" y="-275.3" font-family="Times,serif" font-size="14.00">8</text>
</g>
<!-- 5&#45;&#45;8 -->
<g id="edge24" class="edge">
<title>5&#45;&#45;8</title>
<path fill="none" stroke="black" d="M76.45,-347.73C79.24,-337.33 84.04,-324.32 92,-315 102.15,-303.11 117.4,-294.36 130.11,-288.58"/>
<text text-anchor="middle" x="113.5" y="-318.8" font-family="Times,serif" font-size="14.00">[1,10]</text>
</g>
<!-- 6&#45;&#45;1 -->
<g id="edge6" class="edge">
<title>6&#45;&#45;1</title>
<path fill="none" stroke="black" d="M574,-36.26C574,-53.43 574,-80.54 574,-104 574,-280 574,-280 574,-280 574,-302.23 572.96,-307.87 575,-330 578.25,-365.21 588,-373.14 588,-408.5 588,-541 588,-541 588,-541 588,-606.03 352.77,-621.65 271.91,-625.09"/>
<text text-anchor="middle" x="596.5" y="-318.8" font-family="Times,serif" font-size="14.00">[3,10]</text>
</g>
<!-- 7 -->
<g id="node7" class="node">
<title>7</title>
<ellipse fill="none" stroke="black" cx="572" cy="-627" rx="27" ry="18"/>
<text text-anchor="middle" x="572" y="-623.3" font-family="Times,serif" font-size="14.00">7</text>
</g>
<!-- 7&#45;&#45;2 -->
<g id="edge8" class="edge">
<title>7&#45;&#45;2</title>
<path fill="none" stroke="black" d="M547.94,-618.23C527.17,-611.4 496.43,-601.03 470,-591 435.39,-577.87 395.88,-561.04 371.95,-550.64"/>
<text text-anchor="middle" x="487" y="-579.8" font-family="Times,serif" font-size="14.00">[6,8]</text>
</g>
<!-- 7&#45;&#45;3 -->
<g id="edge13" class="edge">
<title>7&#45;&#45;3</title>
<path fill="none" stroke="black" d="M565.9,-609.29C551.58,-568.5 517,-460.31 517,-367 517,-367 517,-367 517,-191 517,-149.6 467.09,-124.89 436.09,-113.52"/>
<text text-anchor="middle" x="538.5" y="-362.3" font-family="Times,serif" font-size="14.00">[5,15]</text>
</g>
<!-- 7&#45;&#45;6 -->
<g id="edge16" class="edge">
<title>7&#45;&#45;6</title>
<path fill="none" stroke="black" d="M597.84,-621.64C636.78,-613.42 706,-591.69 706,-541 706,-541 706,-541 706,-104 706,-53.98 638.18,-32 599.76,-23.56"/>
<text text-anchor="middle" x="727.5" y="-318.8" font-family="Times,serif" font-size="14.00">[6,14]</text>
</g>
<!-- 7&#45;&#45;9 -->
<g id="edge19" class="edge">
<title>7&#45;&#45;9</title>
<path fill="none" stroke="black" d="M590.94,-613.77C611.06,-599.12 640,-572.56 640,-541 640,-541 640,-541 640,-104 640,-31.58 373.84,-20.84 287.02,-19.27"/>
<text text-anchor="middle" x="661.5" y="-318.8" font-family="Times,serif" font-size="14.00">[6,11]</text>
</g>
<!-- 8&#45;&#45;1 -->
<g id="edge11" class="edge">
<title>8&#45;&#45;1</title>
<path fill="none" stroke="black" d="M147.58,-296.84C140.22,-321.2 128,-367.82 128,-408.5 128,-541 128,-541 128,-541 128,-586.07 185.52,-609.72 219.9,-619.84"/>
<text text-anchor="middle" x="145" y="-449.3" font-family="Times,serif" font-size="14.00">[3,6]</text>
</g>
<!-- 8&#45;&#45;4 -->
<g id="edge1" class="edge">
<title>8&#45;&#45;4</title>
<path fill="none" stroke="black" d="M157.07,-261C159.68,-251.16 163.43,-238.66 168,-228 170.76,-221.57 174.41,-214.82 177.85,-208.99"/>
<text text-anchor="middle" x="189.5" y="-231.8" font-family="Times,serif" font-size="14.00">[8,15]</text>
</g>
<!-- 8&#45;&#45;10 -->
<g id="edge10" class="edge">
<title>8&#45;&#45;10</title>
<path fill="none" stroke="black" d="M156.38,-297.17C161.13,-318.62 171.13,-355.91 188,-384 193.66,-393.43 197.78,-393.7 205,-402 214.78,-413.24 225.28,-426.41 233.07,-436.41"/>
<text text-anchor="middle" x="209.5" y="-362.3" font-family="Times,serif" font-size="14.00">[3,11]</text>
</g>
<!-- 9&#45;&#45;2 -->
<g id="edge21" class="edge">
<title>9&#45;&#45;2</title>
<path fill="none" stroke="black" d="M282.25,-28.29C308.9,-41.07 350,-66.82 350,-104 350,-454 350,-454 350,-454 350,-477.46 350,-504.57 350,-521.74"/>
<text text-anchor="middle" x="367" y="-275.3" font-family="Times,serif" font-size="14.00">[1,7]</text>
</g>
<!-- 9&#45;&#45;5 -->
<g id="edge3" class="edge">
<title>9&#45;&#45;5</title>
<path fill="none" stroke="black" d="M232.76,-18.52C177.62,-19.12 58,-29.05 58,-104 58,-280 58,-280 58,-280 58,-303.98 63.86,-331.19 68.25,-348.22"/>
<text text-anchor="middle" x="75" y="-188.3" font-family="Times,serif" font-size="14.00">[6,7]</text>
</g>
<!-- 10&#45;&#45;5 -->
<g id="edge2" class="edge">
<title>10&#45;&#45;5</title>
<path fill="none" stroke="black" d="M222.15,-443.17C205.3,-436.47 181.94,-426.77 162,-417 137.49,-404.99 110.26,-389.34 92.45,-378.77"/>
<text text-anchor="middle" x="183.5" y="-405.8" font-family="Times,serif" font-size="14.00">[3,10]</text>
</g>
</g>
</svg>
