<?xml version="1.0" encoding="UTF-8" standalone="no"?>
<!DOCTYPE svg PUBLIC "-//W3C//DTD SVG 1.1//EN"
 "http://www.w3.org/Graphics/SVG/1.1/DTD/svg11.dtd">
<!-- Generated by graphviz version 2.43.0 (0)
 -->
<!-- Title: G Pages: 1 -->
<svg width="339pt" height="566pt"
 viewBox="0.00 0.00 339.00 566.00" xmlns="http://www.w3.org/2000/svg" xmlns:xlink="http://www.w3.org/1999/xlink">
<g id="graph0" class="graph" transform="scale(1 1) rotate(0) translate(4 562)">
<title>G</title>
<polygon fill="white" stroke="transparent" points="-4,4 -4,-562 335,-562 335,4 -4,4"/>
<!-- 1 -->
<g id="node1" class="node">
<title>1</title>
<ellipse fill="none" stroke="black" cx="46" cy="-540" rx="27" ry="18"/>
<text text-anchor="middle" x="46" y="-536.3" font-family="Times,serif" font-size="14.00">1</text>
</g>
<!-- 2 -->
<g id="node2" class="node">
<title>2</title>
<ellipse fill="none" stroke="black" cx="72" cy="-192" rx="27" ry="18"/>
<text text-anchor="middle" x="72" y="-188.3" font-family="Times,serif" font-size="14.00">2</text>
</g>
<!-- 1&#45;&#45;2 -->
<g id="edge1" class="edge">
<title>1&#45;&#45;2</title>
<path fill="none" stroke="black" d="M32.2,-524.33C18.65,-508.33 0,-481.35 0,-454 0,-454 0,-454 0,-278 0,-245.51 31.01,-219.06 52.33,-204.71"/>
<text text-anchor="middle" x="17" y="-362.3" font-family="Times,serif" font-size="14.00">[4,8]</text>
</g>
<!-- 5 -->
<g id="node5" class="node">
<title>5</title>
<ellipse fill="none" stroke="black" cx="111" cy="-366" rx="27" ry="18"/>
<text text-anchor="middle" x="111" y="-362.3" font-family="Times,serif" font-size="14.00">5</text>
</g>
<!-- 1&#45;&#45;5 -->
<g id="edge3" class="edge">
<title>1&#45;&#45;5</title>
<path fill="none" stroke="black" d="M44.93,-521.89C44.18,-500.82 44.75,-464.25 55,-435 62.74,-412.92 81.23,-392.94 94.86,-380.44"/>
<text text-anchor="middle" x="76.5" y="-449.3" font-family="Times,serif" font-size="14.00">[8,13]</text>
</g>
<!-- 8 -->
<g id="node8" class="node">
<title>8</title>
<ellipse fill="none" stroke="black" cx="278" cy="-453" rx="27" ry="18"/>
<text text-anchor="middle" x="278" y="-449.3" font-family="Times,serif" font-size="14.00">8</text>
</g>
<!-- 1&#45;&#45;8 -->
<g id="edge9" class="edge">
<title>1&#45;&#45;8</title>
<path fill="none" stroke="black" d="M64.2,-526.28C81.58,-514.76 108.93,-498.2 135,-489 180.48,-472.95 195.99,-485.43 242,-471 247.14,-469.39 252.5,-467.18 257.45,-464.89"/>
<text text-anchor="middle" x="152" y="-492.8" font-family="Times,serif" font-size="14.00">[3,5]</text>
</g>
<!-- 9 -->
<g id="node9" class="node">
<title>9</title>
<ellipse fill="none" stroke="black" cx="170" cy="-105" rx="27" ry="18"/>
<text text-anchor="middle" x="170" y="-101.3" font-family="Times,serif" font-size="14.00">9</text>
</g>
<!-- 2&#45;&#45;9 -->
<g id="edge8" class="edge">
<title>2&#45;&#45;9</title>
<path fill="none" stroke="black" d="M73.45,-173.91C75.16,-163.31 78.89,-150.04 87,-141 101.84,-124.48 125.75,-115.51 144.11,-110.81"/>
<text text-anchor="middle" x="104" y="-144.8" font-family="Times,serif" font-size="14.00">[5,8]</text>
</g>
<!-- 3 -->
<g id="node3" class="node">
<title>3</title>
<ellipse fill="none" stroke="black" cx="134" cy="-453" rx="27" ry="18"/>
<text text-anchor="middle" x="134" y="-449.3" font-family="Times,serif" font-size="14.00">3</text>
</g>
<!-- 3&#45;&#45;5 -->
<g id="edge7" class="edge">
<title>3&#45;&#45;5</title>
<path fill="none" stroke="black" d="M111.73,-442.8C100.97,-437.08 89.1,-428.59 83,-417 76.51,-404.68 85.49,-390.88 94.97,-380.9"/>
<text text-anchor="middle" x="104.5" y="-405.8" font-family="Times,serif" font-size="14.00">[6,12]</text>
</g>
<!-- 4 -->
<g id="node4" class="node">
<title>4</title>
<ellipse fill="none" stroke="black" cx="111" cy="-279" rx="27" ry="18"/>
<text text-anchor="middle" x="111" y="-275.3" font-family="Times,serif" font-size="14.00">4</text>
</g>
<!-- 4&#45;&#45;2 -->
<g id="edge14" class="edge">
<title>4&#45;&#45;2</title>
<path fill="none" stroke="black" d="M98.92,-262.6C94.71,-256.71 90.24,-249.78 87,-243 81.99,-232.54 78.24,-220.04 75.74,-210.15"/>
<text text-anchor="middle" x="104" y="-231.8" font-family="Times,serif" font-size="14.00">[5,7]</text>
</g>
<!-- 4&#45;&#45;9 -->
<g id="edge11" class="edge">
<title>4&#45;&#45;9</title>
<path fill="none" stroke="black" d="M116.76,-261.19C128.07,-228.23 153.04,-155.44 164.3,-122.62"/>
<text text-anchor="middle" x="168.5" y="-188.3" font-family="Times,serif" font-size="14.00">[7,17]</text>
</g>
<!-- 5&#45;&#45;4 -->
<g id="edge6" class="edge">
<title>5&#45;&#45;4</title>
<path fill="none" stroke="black" d="M111,-347.8C111,-333.05 111,-311.92 111,-297.18"/>
<text text-anchor="middle" x="132.5" y="-318.8" font-family="Times,serif" font-size="14.00">[6,13]</text>
</g>
<!-- 6 -->
<g id="node6" class="node">
<title>6</title>
<ellipse fill="none" stroke="black" cx="170" cy="-18" rx="27" ry="18"/>
<text text-anchor="middle" x="170" y="-14.3" font-family="Times,serif" font-size="14.00">6</text>
</g>
<!-- 7 -->
<g id="node7" class="node">
<title>7</title>
<ellipse fill="none" stroke="black" cx="206" cy="-453" rx="27" ry="18"/>
<text text-anchor="middle" x="206" y="-449.3" font-family="Times,serif" font-size="14.00">7</text>
</g>
<!-- 7&#45;&#45;5 -->
<g id="edge4" class="edge">
<title>7&#45;&#45;5</title>
<path fill="none" stroke="black" d="M184.95,-441.54C173.6,-435.32 159.76,-426.74 149,-417 138.01,-407.05 127.97,-393.56 120.98,-383.1"/>
<text text-anchor="middle" x="170.5" y="-405.8" font-family="Times,serif" font-size="14.00">[1,11]</text>
</g>
<!-- 7&#45;&#45;9 -->
<g id="edge10" class="edge">
<title>7&#45;&#45;9</title>
<path fill="none" stroke="black" d="M206,-434.74C206,-417.57 206,-390.46 206,-367 206,-367 206,-367 206,-191 206,-165.04 191.58,-137.9 181,-121.46"/>
<text text-anchor="middle" x="223" y="-275.3" font-family="Times,serif" font-size="14.00">[1,3]</text>
</g>
<!-- 8&#45;&#45;5 -->
<g id="edge2" class="edge">
<title>8&#45;&#45;5</title>
<path fill="none" stroke="black" d="M259.59,-439.62C243.28,-428.94 218.61,-413.46 196,-402 175.64,-391.68 151.51,-381.97 134.16,-375.41"/>
<text text-anchor="middle" x="238" y="-405.8" font-family="Times,serif" font-size="14.00">[3,4]</text>
</g>
<!-- 8&#45;&#45;9 -->
<g id="edge13" class="edge">
<title>8&#45;&#45;9</title>
<path fill="none" stroke="black" d="M281.22,-434.81C284.14,-417.69 288,-390.63 288,-367 288,-367 288,-367 288,-191 288,-145.55 229.66,-121.99 195.02,-112.01"/>
<text text-anchor="middle" x="309.5" y="-275.3" font-family="Times,serif" font-size="14.00">[4,14]</text>
</g>
<!-- 9&#45;&#45;6 -->
<g id="edge15" class="edge">
<title>9&#45;&#45;6</title>
<path fill="none" stroke="black" d="M170,-86.8C170,-72.05 170,-50.92 170,-36.18"/>
<text text-anchor="middle" x="187" y="-57.8" font-family="Times,serif" font-size="14.00">[4,6]</text>
</g>
<!-- 10 -->
<g id="node10" class="node">
<title>10</title>
<ellipse fill="none" stroke="black" cx="223" cy="-540" rx="27" ry="18"/>
<text text-anchor="middle" x="223" y="-536.3" font-family="Times,serif" font-size="14.00">10</text>
</g>
<!-- 10&#45;&#45;3 -->
<g id="edge12" class="edge">
<title>10&#45;&#45;3</title>
<path fill="none" stroke="black" d="M207.9,-524.58C191.44,-508.86 165.25,-483.85 148.87,-468.21"/>
<text text-anchor="middle" x="209" y="-492.8" font-family="Times,serif" font-size="14.00">[10,20]</text>
</g>
<!-- 10&#45;&#45;8 -->
<g id="edge5" class="edge">
<title>10&#45;&#45;8</title>
<path fill="none" stroke="black" d="M233.35,-523.01C243.18,-507.82 257.88,-485.09 267.7,-469.92"/>
<text text-anchor="middle" x="270" y="-492.8" font-family="Times,serif" font-size="14.00">[3,6]</text>
</g>
</g>
</svg>
