graph G {
1;
2;
3;
4;
5;
6;
7;
8;
9;
10;
11;
12;
3--1  [label="[1,3]", low=1, up=3];
1--8  [label="[5,8]", low=5, up=8];
6--3  [label="[3,6]", low=3, up=6];
9--12  [label="[1,4]", low=1, up=4];
6--2  [label="[6,8]", low=6, up=8];
1--11  [label="[10,12]", low=10, up=12];
6--10  [label="[5,8]", low=5, up=8];
12--2  [label="[10,12]", low=10, up=12];
11--9  [label="[9,12]", low=9, up=12];
9--2  [label="[9,11]", low=9, up=11];
7--11  [label="[9,11]", low=9, up=11];
10--11  [label="[7,10]", low=7, up=10];
8--2  [label="[7,9]", low=7, up=9];
9--8  [label="[5,7]", low=5, up=7];
9--1  [label="[6,9]", low=6, up=9];
12--4  [label="[10,13]", low=10, up=13];
10--2  [label="[8,11]", low=8, up=11];
1--10  [label="[9,12]", low=9, up=12];
12--10  [label="[9,12]", low=9, up=12];
5--3  [label="[10,12]", low=10, up=12];
4--3  [label="[9,11]", low=9, up=11];
2--11  [label="[4,6]", low=4, up=6];
10--8  [label="[5,8]", low=5, up=8];
6--1  [label="[5,7]", low=5, up=7];
1--5  [label="[9,11]", low=9, up=11];
8--11  [label="[8,10]", low=8, up=10];
6--9  [label="[6,9]", low=6, up=9];
1--7  [label="[1,3]", low=1, up=3];
7--12  [label="[8,10]", low=8, up=10];
6--12  [label="[1,3]", low=1, up=3];
}
