graph G {
1;
2;
3;
4;
5;
6;
7;
8;
9;
10;
11;
12;
2--11  [label="[2,5]", low=2, up=5];
12--11  [label="[4,7]", low=4, up=7];
9--10  [label="[8,11]", low=8, up=11];
5--9  [label="[5,8]", low=5, up=8];
12--10  [label="[6,9]", low=6, up=9];
12--8  [label="[4,7]", low=4, up=7];
5--4  [label="[6,9]", low=6, up=9];
9--3  [label="[5,8]", low=5, up=8];
3--8  [label="[6,9]", low=6, up=9];
4--7  [label="[3,6]", low=3, up=6];
1--5  [label="[2,4]", low=2, up=4];
2--5  [label="[1,3]", low=1, up=3];
4--10  [label="[1,4]", low=1, up=4];
8--1  [label="[2,5]", low=2, up=5];
4--9  [label="[5,7]", low=5, up=7];
3--10  [label="[5,7]", low=5, up=7];
12--4  [label="[1,4]", low=1, up=4];
2--12  [label="[2,5]", low=2, up=5];
1--7  [label="[9,11]", low=9, up=11];
11--10  [label="[9,11]", low=9, up=11];
9--2  [label="[10,13]", low=10, up=13];
7--12  [label="[3,5]", low=3, up=5];
11--7  [label="[8,11]", low=8, up=11];
6--3  [label="[9,12]", low=9, up=12];
11--4  [label="[4,7]", low=4, up=7];
1--6  [label="[5,7]", low=5, up=7];
11--5  [label="[8,11]", low=8, up=11];
8--10  [label="[5,8]", low=5, up=8];
4--3  [label="[2,4]", low=2, up=4];
5--3  [label="[2,4]", low=2, up=4];
}
