<?xml version="1.0" encoding="UTF-8" standalone="no"?>
<!DOCTYPE svg PUBLIC "-//W3C//DTD SVG 1.1//EN"
 "http://www.w3.org/Graphics/SVG/1.1/DTD/svg11.dtd">
<!-- Generated by graphviz version 2.43.0 (0)
 -->
<!-- Title: G Pages: 1 -->
<svg width="433pt" height="479pt"
 viewBox="0.00 0.00 432.50 479.00" xmlns="http://www.w3.org/2000/svg" xmlns:xlink="http://www.w3.org/1999/xlink">
<g id="graph0" class="graph" transform="scale(1 1) rotate(0) translate(4 475)">
<title>G</title>
<polygon fill="white" stroke="transparent" points="-4,4 -4,-475 428.5,-475 428.5,4 -4,4"/>
<!-- 1 -->
<g id="node1" class="node">
<title>1</title>
<ellipse fill="none" stroke="black" cx="39.5" cy="-192" rx="27" ry="18"/>
<text text-anchor="middle" x="39.5" y="-188.3" font-family="Times,serif" font-size="14.00">1</text>
</g>
<!-- 2 -->
<g id="node2" class="node">
<title>2</title>
<ellipse fill="none" stroke="black" cx="292.5" cy="-192" rx="27" ry="18"/>
<text text-anchor="middle" x="292.5" y="-188.3" font-family="Times,serif" font-size="14.00">2</text>
</g>
<!-- 9 -->
<g id="node9" class="node">
<title>9</title>
<ellipse fill="none" stroke="black" cx="256.5" cy="-105" rx="27" ry="18"/>
<text text-anchor="middle" x="256.5" y="-101.3" font-family="Times,serif" font-size="14.00">9</text>
</g>
<!-- 2&#45;&#45;9 -->
<g id="edge4" class="edge">
<title>2&#45;&#45;9</title>
<path fill="none" stroke="black" d="M285.39,-174.21C279.04,-159.21 269.79,-137.37 263.48,-122.47"/>
<text text-anchor="middle" x="293.5" y="-144.8" font-family="Times,serif" font-size="14.00">[1,3]</text>
</g>
<!-- 3 -->
<g id="node3" class="node">
<title>3</title>
<ellipse fill="none" stroke="black" cx="220.5" cy="-279" rx="27" ry="18"/>
<text text-anchor="middle" x="220.5" y="-275.3" font-family="Times,serif" font-size="14.00">3</text>
</g>
<!-- 4 -->
<g id="node4" class="node">
<title>4</title>
<ellipse fill="none" stroke="black" cx="179.5" cy="-18" rx="27" ry="18"/>
<text text-anchor="middle" x="179.5" y="-14.3" font-family="Times,serif" font-size="14.00">4</text>
</g>
<!-- 3&#45;&#45;4 -->
<g id="edge14" class="edge">
<title>3&#45;&#45;4</title>
<path fill="none" stroke="black" d="M247.59,-276.83C288.7,-273.43 365.74,-260.29 400.5,-210 409.6,-196.84 406.51,-188.83 400.5,-174 365.83,-88.44 253.65,-42.77 203.78,-26.27"/>
<text text-anchor="middle" x="407.5" y="-144.8" font-family="Times,serif" font-size="14.00">[1,3]</text>
</g>
<!-- 10 -->
<g id="node10" class="node">
<title>10</title>
<ellipse fill="none" stroke="black" cx="220.5" cy="-192" rx="27" ry="18"/>
<text text-anchor="middle" x="220.5" y="-188.3" font-family="Times,serif" font-size="14.00">10</text>
</g>
<!-- 3&#45;&#45;10 -->
<g id="edge11" class="edge">
<title>3&#45;&#45;10</title>
<path fill="none" stroke="black" d="M220.5,-260.8C220.5,-246.05 220.5,-224.92 220.5,-210.18"/>
<text text-anchor="middle" x="237.5" y="-231.8" font-family="Times,serif" font-size="14.00">[3,6]</text>
</g>
<!-- 5 -->
<g id="node5" class="node">
<title>5</title>
<ellipse fill="none" stroke="black" cx="220.5" cy="-453" rx="27" ry="18"/>
<text text-anchor="middle" x="220.5" y="-449.3" font-family="Times,serif" font-size="14.00">5</text>
</g>
<!-- 5&#45;&#45;3 -->
<g id="edge6" class="edge">
<title>5&#45;&#45;3</title>
<path fill="none" stroke="black" d="M220.5,-434.88C220.5,-401.91 220.5,-329.97 220.5,-297.05"/>
<text text-anchor="middle" x="237.5" y="-362.3" font-family="Times,serif" font-size="14.00">[1,3]</text>
</g>
<!-- 7 -->
<g id="node7" class="node">
<title>7</title>
<ellipse fill="none" stroke="black" cx="148.5" cy="-366" rx="27" ry="18"/>
<text text-anchor="middle" x="148.5" y="-362.3" font-family="Times,serif" font-size="14.00">7</text>
</g>
<!-- 5&#45;&#45;7 -->
<g id="edge7" class="edge">
<title>5&#45;&#45;7</title>
<path fill="none" stroke="black" d="M200.48,-440.61C191.09,-434.52 180.29,-426.35 172.5,-417 164.37,-407.23 158.25,-394.24 154.22,-383.95"/>
<text text-anchor="middle" x="189.5" y="-405.8" font-family="Times,serif" font-size="14.00">[4,7]</text>
</g>
<!-- 5&#45;&#45;10 -->
<g id="edge12" class="edge">
<title>5&#45;&#45;10</title>
<path fill="none" stroke="black" d="M232.21,-436.51C241.38,-423.34 253.42,-403.5 258.5,-384 275.98,-316.91 286.35,-291.5 258.5,-228 254.47,-218.8 246.69,-210.95 239.22,-205.03"/>
<text text-anchor="middle" x="291.5" y="-318.8" font-family="Times,serif" font-size="14.00">[2,4]</text>
</g>
<!-- 6 -->
<g id="node6" class="node">
<title>6</title>
<ellipse fill="none" stroke="black" cx="54.5" cy="-279" rx="27" ry="18"/>
<text text-anchor="middle" x="54.5" y="-275.3" font-family="Times,serif" font-size="14.00">6</text>
</g>
<!-- 6&#45;&#45;1 -->
<g id="edge1" class="edge">
<title>6&#45;&#45;1</title>
<path fill="none" stroke="black" d="M40.77,-263.12C36.27,-257.28 31.83,-250.25 29.5,-243 25.99,-232.04 28.62,-219.32 32.07,-209.45"/>
<text text-anchor="middle" x="46.5" y="-231.8" font-family="Times,serif" font-size="14.00">[5,7]</text>
</g>
<!-- 6&#45;&#45;4 -->
<g id="edge15" class="edge">
<title>6&#45;&#45;4</title>
<path fill="none" stroke="black" d="M39.14,-263.84C19.69,-244.1 -9.77,-207.03 3.5,-174 32.8,-101.08 117.96,-50.01 158.1,-29.29"/>
<text text-anchor="middle" x="37.5" y="-144.8" font-family="Times,serif" font-size="14.00">[1,3]</text>
</g>
<!-- 6&#45;&#45;10 -->
<g id="edge10" class="edge">
<title>6&#45;&#45;10</title>
<path fill="none" stroke="black" d="M75.19,-267.41C107.09,-251.07 167.92,-219.93 199.82,-203.59"/>
<text text-anchor="middle" x="163.5" y="-231.8" font-family="Times,serif" font-size="14.00">[1,4]</text>
</g>
<!-- 7&#45;&#45;3 -->
<g id="edge8" class="edge">
<title>7&#45;&#45;3</title>
<path fill="none" stroke="black" d="M154.22,-348.05C158.25,-337.76 164.37,-324.77 172.5,-315 180.29,-305.65 191.09,-297.48 200.48,-291.39"/>
<text text-anchor="middle" x="189.5" y="-318.8" font-family="Times,serif" font-size="14.00">[2,4]</text>
</g>
<!-- 7&#45;&#45;4 -->
<g id="edge13" class="edge">
<title>7&#45;&#45;4</title>
<path fill="none" stroke="black" d="M146.11,-348.06C141.78,-314.64 133.78,-237.91 141.5,-174 147.68,-122.84 164.94,-64.2 173.92,-35.95"/>
<text text-anchor="middle" x="163" y="-188.3" font-family="Times,serif" font-size="14.00">[8,10]</text>
</g>
<!-- 7&#45;&#45;6 -->
<g id="edge5" class="edge">
<title>7&#45;&#45;6</title>
<path fill="none" stroke="black" d="M126.12,-355.66C113.5,-349.62 98,-340.87 86.5,-330 76.32,-320.37 67.93,-306.86 62.29,-296.31"/>
<text text-anchor="middle" x="103.5" y="-318.8" font-family="Times,serif" font-size="14.00">[2,4]</text>
</g>
<!-- 8 -->
<g id="node8" class="node">
<title>8</title>
<ellipse fill="none" stroke="black" cx="364.5" cy="-192" rx="27" ry="18"/>
<text text-anchor="middle" x="364.5" y="-188.3" font-family="Times,serif" font-size="14.00">8</text>
</g>
<!-- 8&#45;&#45;9 -->
<g id="edge2" class="edge">
<title>8&#45;&#45;9</title>
<path fill="none" stroke="black" d="M351.34,-176.03C341.72,-165.55 328.04,-151.59 314.5,-141 302.83,-131.87 288.6,-123.24 277.16,-116.84"/>
<text text-anchor="middle" x="347.5" y="-144.8" font-family="Times,serif" font-size="14.00">[5,7]</text>
</g>
<!-- 9&#45;&#45;4 -->
<g id="edge3" class="edge">
<title>9&#45;&#45;4</title>
<path fill="none" stroke="black" d="M243.09,-89.19C229.04,-73.69 207.11,-49.47 193.02,-33.92"/>
<text text-anchor="middle" x="244" y="-57.8" font-family="Times,serif" font-size="14.00">[8,11]</text>
</g>
<!-- 10&#45;&#45;9 -->
<g id="edge9" class="edge">
<title>10&#45;&#45;9</title>
<path fill="none" stroke="black" d="M219.17,-173.67C219.06,-163.72 220.06,-151.22 224.5,-141 227.98,-133 234.07,-125.62 240,-119.72"/>
<text text-anchor="middle" x="246" y="-144.8" font-family="Times,serif" font-size="14.00">[9,12]</text>
</g>
</g>
</svg>
