graph G {
1;
2;
3;
4;
5;
6;
7;
8;
9;
10;
5--4  [label="[4,6]", low=4, up=6];
7--3  [label="[4,6]", low=4, up=6];
3--1  [label="[6,9]", low=6, up=9];
9--7  [label="[5,7]", low=5, up=7];
2--6  [label="[9,11]", low=9, up=11];
10--8  [label="[10,12]", low=10, up=12];
8--1  [label="[10,12]", low=10, up=12];
2--10  [label="[6,9]", low=6, up=9];
10--3  [label="[9,12]", low=9, up=12];
9--4  [label="[7,10]", low=7, up=10];
4--2  [label="[1,3]", low=1, up=3];
10--1  [label="[2,4]", low=2, up=4];
8--4  [label="[8,10]", low=8, up=10];
3--8  [label="[3,5]", low=3, up=5];
6--9  [label="[4,6]", low=4, up=6];
}
