graph G {
1;
2;
3;
4;
5;
6;
7;
8;
9;
10;
5--4  [label="[4,7]", low=4, up=7];
7--3  [label="[2,5]", low=2, up=5];
3--1  [label="[8,11]", low=8, up=11];
9--7  [label="[8,10]", low=8, up=10];
2--6  [label="[4,6]", low=4, up=6];
10--8  [label="[4,6]", low=4, up=6];
8--1  [label="[9,11]", low=9, up=11];
2--10  [label="[10,13]", low=10, up=13];
10--3  [label="[6,8]", low=6, up=8];
9--4  [label="[3,6]", low=3, up=6];
4--2  [label="[2,5]", low=2, up=5];
10--1  [label="[2,5]", low=2, up=5];
8--4  [label="[6,8]", low=6, up=8];
3--8  [label="[5,8]", low=5, up=8];
6--9  [label="[2,5]", low=2, up=5];
}
