graph G {
1;
2;
3;
4;
5;
6;
7;
8;
9;
10;
8--1  [label="[1,3]", low=1, up=3];
7--8  [label="[8,10]", low=8, up=10];
10--9  [label="[9,11]", low=9, up=11];
2--9  [label="[3,5]", low=3, up=5];
9--1  [label="[10,12]", low=10, up=12];
4--10  [label="[2,5]", low=2, up=5];
2--5  [label="[1,4]", low=1, up=4];
3--5  [label="[1,3]", low=1, up=3];
7--9  [label="[4,7]", low=4, up=7];
1--10  [label="[4,7]", low=4, up=7];
10--8  [label="[3,5]", low=3, up=5];
6--2  [label="[4,6]", low=4, up=6];
8--3  [label="[2,4]", low=2, up=4];
5--1  [label="[3,5]", low=3, up=5];
7--4  [label="[10,12]", low=10, up=12];
}
