<?xml version="1.0" encoding="UTF-8" standalone="no"?>
<!DOCTYPE svg PUBLIC "-//W3C//DTD SVG 1.1//EN"
 "http://www.w3.org/Graphics/SVG/1.1/DTD/svg11.dtd">
<!-- Generated by graphviz version 2.43.0 (0)
 -->
<!-- Title: G Pages: 1 -->
<svg width="448pt" height="479pt"
 viewBox="0.00 0.00 448.00 479.00" xmlns="http://www.w3.org/2000/svg" xmlns:xlink="http://www.w3.org/1999/xlink">
<g id="graph0" class="graph" transform="scale(1 1) rotate(0) translate(4 475)">
<title>G</title>
<polygon fill="white" stroke="transparent" points="-4,4 -4,-475 444,-475 444,4 -4,4"/>
<!-- 1 -->
<g id="node1" class="node">
<title>1</title>
<ellipse fill="none" stroke="black" cx="27" cy="-453" rx="27" ry="18"/>
<text text-anchor="middle" x="27" y="-449.3" font-family="Times,serif" font-size="14.00">1</text>
</g>
<!-- 2 -->
<g id="node2" class="node">
<title>2</title>
<ellipse fill="none" stroke="black" cx="149" cy="-366" rx="27" ry="18"/>
<text text-anchor="middle" x="149" y="-362.3" font-family="Times,serif" font-size="14.00">2</text>
</g>
<!-- 1&#45;&#45;2 -->
<g id="edge2" class="edge">
<title>1&#45;&#45;2</title>
<path fill="none" stroke="black" d="M45,-439.46C68.07,-423.39 107.82,-395.69 130.92,-379.59"/>
<text text-anchor="middle" x="117.5" y="-405.8" font-family="Times,serif" font-size="14.00">[1,10]</text>
</g>
<!-- 3 -->
<g id="node3" class="node">
<title>3</title>
<ellipse fill="none" stroke="black" cx="58" cy="-18" rx="27" ry="18"/>
<text text-anchor="middle" x="58" y="-14.3" font-family="Times,serif" font-size="14.00">3</text>
</g>
<!-- 1&#45;&#45;3 -->
<g id="edge12" class="edge">
<title>1&#45;&#45;3</title>
<path fill="none" stroke="black" d="M21.94,-435.24C17.25,-418.22 11,-391.03 11,-367 11,-367 11,-367 11,-104 11,-76.51 30.05,-49.57 43.9,-33.62"/>
<text text-anchor="middle" x="32.5" y="-231.8" font-family="Times,serif" font-size="14.00">[5,12]</text>
</g>
<!-- 5 -->
<g id="node5" class="node">
<title>5</title>
<ellipse fill="none" stroke="black" cx="151" cy="-105" rx="27" ry="18"/>
<text text-anchor="middle" x="151" y="-101.3" font-family="Times,serif" font-size="14.00">5</text>
</g>
<!-- 2&#45;&#45;5 -->
<g id="edge4" class="edge">
<title>2&#45;&#45;5</title>
<path fill="none" stroke="black" d="M149.13,-347.6C149.5,-300.42 150.5,-170.41 150.87,-123.32"/>
<text text-anchor="middle" x="171.5" y="-231.8" font-family="Times,serif" font-size="14.00">[8,16]</text>
</g>
<!-- 6 -->
<g id="node6" class="node">
<title>6</title>
<ellipse fill="none" stroke="black" cx="244" cy="-279" rx="27" ry="18"/>
<text text-anchor="middle" x="244" y="-275.3" font-family="Times,serif" font-size="14.00">6</text>
</g>
<!-- 2&#45;&#45;6 -->
<g id="edge6" class="edge">
<title>2&#45;&#45;6</title>
<path fill="none" stroke="black" d="M164.69,-350.96C182.29,-335.21 210.68,-309.81 228.29,-294.06"/>
<text text-anchor="middle" x="223.5" y="-318.8" font-family="Times,serif" font-size="14.00">[5,13]</text>
</g>
<!-- 7 -->
<g id="node7" class="node">
<title>7</title>
<ellipse fill="none" stroke="black" cx="339" cy="-18" rx="27" ry="18"/>
<text text-anchor="middle" x="339" y="-14.3" font-family="Times,serif" font-size="14.00">7</text>
</g>
<!-- 2&#45;&#45;7 -->
<g id="edge7" class="edge">
<title>2&#45;&#45;7</title>
<path fill="none" stroke="black" d="M175.54,-361.65C239.52,-352.84 397,-326.42 397,-280 397,-280 397,-280 397,-104 397,-74.52 372.91,-47.73 355.78,-32.41"/>
<text text-anchor="middle" x="418.5" y="-188.3" font-family="Times,serif" font-size="14.00">[2,11]</text>
</g>
<!-- 9 -->
<g id="node9" class="node">
<title>9</title>
<ellipse fill="none" stroke="black" cx="69" cy="-192" rx="27" ry="18"/>
<text text-anchor="middle" x="69" y="-188.3" font-family="Times,serif" font-size="14.00">9</text>
</g>
<!-- 2&#45;&#45;9 -->
<g id="edge14" class="edge">
<title>2&#45;&#45;9</title>
<path fill="none" stroke="black" d="M131.19,-352.07C115.7,-339.77 94.07,-319.79 83,-297 69.31,-268.81 67.7,-231.56 68.11,-210.14"/>
<text text-anchor="middle" x="109" y="-275.3" font-family="Times,serif" font-size="14.00">[10,19]</text>
</g>
<!-- 4 -->
<g id="node4" class="node">
<title>4</title>
<ellipse fill="none" stroke="black" cx="276" cy="-192" rx="27" ry="18"/>
<text text-anchor="middle" x="276" y="-188.3" font-family="Times,serif" font-size="14.00">4</text>
</g>
<!-- 5&#45;&#45;7 -->
<g id="edge1" class="edge">
<title>5&#45;&#45;7</title>
<path fill="none" stroke="black" d="M147.15,-86.72C145.84,-76.04 146.3,-62.75 154,-54 174.47,-30.75 266,-22.74 312.18,-20.15"/>
<text text-anchor="middle" x="175.5" y="-57.8" font-family="Times,serif" font-size="14.00">[6,13]</text>
</g>
<!-- 6&#45;&#45;4 -->
<g id="edge5" class="edge">
<title>6&#45;&#45;4</title>
<path fill="none" stroke="black" d="M250.32,-261.21C255.93,-246.31 264.08,-224.65 269.69,-209.76"/>
<text text-anchor="middle" x="287" y="-231.8" font-family="Times,serif" font-size="14.00">[10,17]</text>
</g>
<!-- 6&#45;&#45;7 -->
<g id="edge10" class="edge">
<title>6&#45;&#45;7</title>
<path fill="none" stroke="black" d="M269.5,-272.57C285.83,-267.69 305.96,-258.77 317,-243 340.31,-209.71 340.26,-82.64 339.43,-36.16"/>
<text text-anchor="middle" x="358.5" y="-144.8" font-family="Times,serif" font-size="14.00">[7,15]</text>
</g>
<!-- 10 -->
<g id="node10" class="node">
<title>10</title>
<ellipse fill="none" stroke="black" cx="204" cy="-192" rx="27" ry="18"/>
<text text-anchor="middle" x="204" y="-188.3" font-family="Times,serif" font-size="14.00">10</text>
</g>
<!-- 6&#45;&#45;10 -->
<g id="edge9" class="edge">
<title>6&#45;&#45;10</title>
<path fill="none" stroke="black" d="M231.98,-262.57C227.79,-256.68 223.31,-249.75 220,-243 214.87,-232.52 210.87,-220.02 208.15,-210.14"/>
<text text-anchor="middle" x="237" y="-231.8" font-family="Times,serif" font-size="14.00">[1,8]</text>
</g>
<!-- 8 -->
<g id="node8" class="node">
<title>8</title>
<ellipse fill="none" stroke="black" cx="235" cy="-105" rx="27" ry="18"/>
<text text-anchor="middle" x="235" y="-101.3" font-family="Times,serif" font-size="14.00">8</text>
</g>
<!-- 8&#45;&#45;3 -->
<g id="edge3" class="edge">
<title>8&#45;&#45;3</title>
<path fill="none" stroke="black" d="M227.57,-87.19C221.85,-76.15 212.9,-62.26 201,-54 165.94,-29.66 115.77,-22.18 85.12,-19.92"/>
<text text-anchor="middle" x="242" y="-57.8" font-family="Times,serif" font-size="14.00">[10,17]</text>
</g>
<!-- 9&#45;&#45;3 -->
<g id="edge15" class="edge">
<title>9&#45;&#45;3</title>
<path fill="none" stroke="black" d="M67.91,-173.88C65.8,-140.91 61.2,-68.97 59.09,-36.05"/>
<text text-anchor="middle" x="82" y="-101.3" font-family="Times,serif" font-size="14.00">[2,9]</text>
</g>
<!-- 9&#45;&#45;5 -->
<g id="edge11" class="edge">
<title>9&#45;&#45;5</title>
<path fill="none" stroke="black" d="M73.85,-174.24C77.53,-163.77 83.43,-150.51 92,-141 102.04,-129.85 116.49,-121.2 128.58,-115.28"/>
<text text-anchor="middle" x="113.5" y="-144.8" font-family="Times,serif" font-size="14.00">[2,10]</text>
</g>
<!-- 10&#45;&#45;5 -->
<g id="edge13" class="edge">
<title>10&#45;&#45;5</title>
<path fill="none" stroke="black" d="M192.43,-175.57C188.07,-169.56 183.16,-162.56 179,-156 172.07,-145.08 164.96,-132.36 159.64,-122.48"/>
<text text-anchor="middle" x="200.5" y="-144.8" font-family="Times,serif" font-size="14.00">[3,12]</text>
</g>
<!-- 10&#45;&#45;8 -->
<g id="edge8" class="edge">
<title>10&#45;&#45;8</title>
<path fill="none" stroke="black" d="M215.43,-175.65C219.33,-169.77 223.36,-162.83 226,-156 230.08,-145.47 232.33,-132.97 233.56,-123.1"/>
<text text-anchor="middle" x="247" y="-144.8" font-family="Times,serif" font-size="14.00">[1,9]</text>
</g>
</g>
</svg>
